<?xml version="1.0" encoding="utf-8"?>
<!-- Generator: Adobe Illustrator 18.1.1, SVG Export Plug-In . SVG Version: 6.00 Build 0)  -->
<svg version="1.1" baseProfile="tiny" id="Layer_1" xmlns="http://www.w3.org/2000/svg" xmlns:xlink="http://www.w3.org/1999/xlink"
	 x="0px" y="0px" viewBox="0 0 26.5 17.9" xml:space="preserve">
<g>
	<path fill="#009BDE" d="M1.5,7.3c0-2.7,0-3.2-0.1-3.7c0-0.5-0.2-0.8-0.6-0.8c-0.1,0-0.3-0.1-0.5-0.1S0,2.6,0,2.5
		c0-0.1,0.1-0.2,0.4-0.2c0.7,0,2.5,0.1,2.6,0.1c0.1,0,2.3-0.1,2.9-0.1c0.3,0,0.3,0.1,0.3,0.2c0,0.1-0.1,0.2-0.3,0.2
		c-0.2,0-0.2,0-0.4,0.1C5,2.9,4.9,3,4.8,3.6c-0.1,0.6-0.1,1-0.1,3.7v3c0,1.3,0,3,0.1,3.7c0,0.4,0.2,0.7,0.7,0.9
		C5.7,14.9,6,14.9,6.2,15c0.3,0,0.4,0.1,0.4,0.2c0,0.1-0.1,0.2-0.4,0.2c-1.2,0-3.2-0.1-3.3-0.1c0,0-2,0.1-2.6,0.1
		c-0.3,0-0.4-0.1-0.4-0.2C0,15.1,0.1,15,0.3,15c0.2,0,0.3,0,0.6-0.1c0.4-0.1,0.5-0.4,0.6-0.9c0.1-0.7,0.1-1.9,0.1-3.6V7.3z"/>
	<g>
		<path fill="#009BDE" d="M8.1,7.9c0-4,2.6-7.9,8.2-7.9c4.9,0,7.9,3.4,7.9,7.4c0,4.7-3,8.2-8,8.2C10.5,15.6,8.1,11.4,8.1,7.9z
			 M20.4,8.3c0-3.3-1.3-7.1-4.7-7.1c-1.8,0-3.7,1-3.7,5.7c0,3.8,1.5,7.4,4.8,7.4C17.9,14.4,20.4,13.8,20.4,8.3z"/>
		<path fill="#009BDE" d="M26,17.2c-0.3,0-0.5-0.1-0.7-0.1c-0.8-0.2-1.3-0.4-2.6-2.3c0,0-3.8-4.6-3.9-4.7C18.4,9.7,18,9.4,17.3,9
			c0,0-0.1,0-0.1,0c-1.3-0.6-3.4-0.2-5.3,1.1c-0.5,0.3-0.5,0.5-0.3,0.6c0.1,0.1,0.2,0.1,0.6,0c1-0.4,1.9-0.6,3.3,0.1
			c0.3,0.2,0.6,0.4,0.9,0.8c0.3,0.3,3,3.6,3.2,4c0.4,0.6,1.5,2.3,2.5,2.3c0.8,0,2.7,0.1,4,0.1c0.3,0,0.5-0.1,0.5-0.3
			C26.5,17.4,26.4,17.3,26,17.2z"/>
	</g>
</g>
</svg>
