<?xml version="1.0" encoding="utf-8"?>
<!-- Generator: Adobe Illustrator 18.1.1, SVG Export Plug-In . SVG Version: 6.00 Build 0)  -->
<svg version="1.1" id="Layer_1" xmlns="http://www.w3.org/2000/svg" xmlns:xlink="http://www.w3.org/1999/xlink" x="0px" y="0px"
	 viewBox="638 322 124 124" enable-background="new 638 322 124 124" xml:space="preserve">
<path d="M750,334h-50l-12-12h-37c-6.8,0-13,5.2-13,12v74c0,6.8,5.2,13,12,13h100c6.8,0,12-6.2,12-13v-61
	C762,340.2,756.8,334,750,334z M743,384h-18v18h-13v-18h-18v-13h18v-18h13v18h18V384z"/>
</svg>
