<?xml version="1.0" encoding="utf-8"?>
<!-- Generator: Adobe Illustrator 18.1.1, SVG Export Plug-In . SVG Version: 6.00 Build 0)  -->
<svg version="1.1" id="Layer_1" xmlns="http://www.w3.org/2000/svg" xmlns:xlink="http://www.w3.org/1999/xlink" x="0px" y="0px"
	 viewBox="638 322 124 124" enable-background="new 638 322 124 124" xml:space="preserve">
<path d="M762,335l-12-13l-49,50l-50-50l-13,13l50,49l-50,50l13,12l49-49l50,49l12-13l-49-49L762,335z"/>
</svg>
