<?xml version="1.0" encoding="utf-8"?>
<!-- Generator: Adobe Illustrator 18.1.1, SVG Export Plug-In . SVG Version: 6.00 Build 0)  -->
<svg version="1.1" baseProfile="tiny" xmlns="http://www.w3.org/2000/svg" xmlns:xlink="http://www.w3.org/1999/xlink"
	 x="0px" y="0px" viewBox="0 0 486.8 109.3" xml:space="preserve">
<g>
	<g>
		<g>
			<path fill="#009BDE" d="M34.8,2.5C52.2,17.1,56.7,78.1,0,97.7C21.1,81.2,48.9,53.5,34.8,2.5"/>
			<path fill="#8A8C8C" d="M14.5,109.3c10.2-25.5,53-58.5,98.6-21C84.5,72.5,37.4,81.8,14.5,109.3"/>
			<path fill="#041E41" d="M52.8,0c-9.7,20.6,11.7,77.8,71.5,71.8C98.2,65.7,61.3,52.2,52.8,0"/>
		</g>
	</g>
	<g>
		<g>
			<path fill="#009BDE" d="M415.9,21.7c0-7.6,0-8.9-0.2-10.5c-0.1-1.3-0.4-2.2-1.6-2.4c-0.3-0.1-0.9-0.2-1.5-0.2s-0.9-0.2-0.9-0.6
				c0-0.3,0.2-0.6,1.1-0.6c1.9,0,7.1,0.2,7.3,0.2c0.3,0,6.4-0.2,8.3-0.2c0.9,0,1,0.2,1,0.6c0,0.4-0.4,0.5-1,0.6
				c-0.5,0.1-0.5,0.1-1.1,0.2c-1.3,0.3-1.7,0.8-2,2.5c-0.2,1.6-0.2,2.8-0.2,10.4v8.6c0,3.7,0.1,8.4,0.3,10.5
				c0.1,1.2,0.4,2.1,1.9,2.4c0.7,0.2,1.5,0.2,2,0.2c0.8,0,1,0.3,1,0.6c0,0.2-0.2,0.5-1,0.5c-3.4,0-9-0.2-9.2-0.2
				c-0.1,0-5.8,0.2-7.3,0.2c-0.8,0-1.1-0.2-1.1-0.6c0-0.3,0.3-0.6,0.8-0.6c0.4-0.1,0.9-0.1,1.6-0.2c1-0.2,1.5-1.2,1.6-2.7
				c0.3-2,0.3-5.4,0.3-10.3V21.7z"/>
			<g>
				<path fill="#009BDE" d="M434.6,23.4c0-11.3,7.3-22.3,23.2-22.3c13.8,0,22.4,9.6,22.4,21.1c0,13.2-8.6,23.2-22.8,23.2
					C441.4,45.4,434.6,33.4,434.6,23.4z M469.4,24.6c0-9.4-3.7-20.1-13.4-20.1c-5,0-10.6,2.9-10.6,16.3c0,10.7,4.3,20.9,13.6,20.9
					C462.4,41.8,469.4,40.2,469.4,24.6z"/>
				<path fill="#009BDE" d="M485.4,49.8c-0.9-0.1-1.3-0.2-1.8-0.3c-2.3-0.6-3.6-1.2-7.5-6.4c0,0-10.8-13-11-13.2
					c-1.3-1.5-2.4-2.3-4.4-3.4c-0.1-0.1-0.2-0.1-0.3-0.1c-3.7-1.8-9.5-0.5-15,3c-1.3,0.8-1.5,1.4-0.9,1.7c0.3,0.2,0.6,0.3,1.6-0.1
					c2.9-1.1,5.5-1.8,9.4,0.3c0.9,0.5,1.8,1.2,2.7,2.1c0.8,1,8.4,10.2,9.2,11.4c1.1,1.8,4.2,6.5,6.9,6.5c2.2,0,7.6,0.3,11.2,0.3
					c0.8,0,1.4-0.4,1.4-0.8C486.8,50.3,486.4,49.9,485.4,49.8z"/>
			</g>
		</g>
		<g>
			<path fill="#9FA1A4" d="M83.5,23.1C83.5,14,90.1,1,105.7,1C118.5,1,128,9,128,22.2c0,12.7-8.9,23.1-22.6,23.1
				C89.9,45.4,83.5,33.3,83.5,23.1z M122.6,23.8c0-13.6-8.3-20.9-17.2-20.9c-9.4,0-16.5,6.2-16.5,18.6c0,13.2,7.9,21.7,18.1,21.7
				C112,43.2,122.6,40.3,122.6,23.8z"/>
			<path fill="#9FA1A4" d="M137.7,22.1c0-7.5,0-8.8-0.1-10.4c-0.1-1.5-0.5-2.4-2.3-2.7c-0.3-0.1-0.9-0.1-1.4-0.1
				c-0.4,0-0.6-0.1-0.6-0.3c0-0.2,0.2-0.4,0.7-0.4c2.4,0,5.9,0.2,6,0.2c0.5,0,4.4-0.2,5.9-0.2c3.2,0,6.6,0.3,9.3,2.1
				c1.1,0.8,3.4,3.1,3.4,6.9c0,3.1-1.5,7.1-6,10.7c4.1,5.1,7.5,9.3,10.4,12.3c2.7,2.8,4.4,3.2,6,3.5c0.4,0.1,1.6,0.1,1.8,0.1
				c0.5,0,0.6,0.2,0.6,0.4c0,0.3-0.2,0.4-1,0.4h-4c-2.7,0-3.9-0.2-5.1-0.7c-2.4-1-4.1-3.6-7-7.4c-2.2-2.7-4.5-5.8-5.4-7
				c-0.2-0.2-0.3-0.3-0.7-0.3l-5.8-0.1c-0.2,0-0.3,0.1-0.3,0.3v0.8c0,4.5,0,8.7,0.3,10.7c0.2,1.4,0.3,2.5,2.2,2.7
				c0.6,0.1,1.2,0.1,1.6,0.1c0.5,0,0.7,0.2,0.7,0.3c0,0.3-0.2,0.5-0.8,0.5c-2.9,0-6.1-0.2-6.3-0.2c-0.9,0-3.4,0.2-4.9,0.2
				c-0.6,0-0.8-0.1-0.8-0.5c0-0.2,0.3-0.3,0.7-0.3c0.4,0,0.8,0,1.2-0.1c1-0.2,1.3-0.8,1.5-2.2c0.3-2,0.2-6.7,0.2-10.9V22.1z
				 M142,26.1c0,0.3,0.1,0.6,0.3,0.7c0.7,0.4,3,0.7,5,0.7c1.2,0,2.6-0.1,3.8-0.8c1.7-1.1,2.8-3.6,2.8-7.2c0-6.2-3.3-9.6-8.3-9.6
				c-1.4,0-2.6,0.1-3.3,0.3c-0.2,0.1-0.3,0.2-0.3,0.5V26.1z"/>
			<path fill="#9FA1A4" d="M185.2,30.6c0,4.4,0.1,8.4,0.3,10.5c0.2,1.4,0.3,2.1,1.7,2.5c0.7,0.2,1.8,0.2,2.2,0.2
				c0.5,0,0.7,0.2,0.7,0.3c0,0.3-0.2,0.5-0.7,0.5c-2.9,0-6.2-0.2-6.5-0.2c-0.2,0-3.6,0.2-5,0.2c-0.6,0-0.8-0.1-0.8-0.4
				c0-0.2,0.2-0.4,0.6-0.4c0.5,0,0.8,0,1.2-0.1c1.1-0.2,1.2-0.8,1.5-2.8c0.2-2,0.2-6.1,0.2-10.4V10.4c-1.9,0-4.9,0-7.1,0.1
				c-3.6,0.1-4.4,0.6-5.2,1.8c-0.5,0.8-0.7,1.5-0.8,1.8c-0.2,0.4-0.3,0.5-0.5,0.5c-0.2,0-0.3-0.2-0.3-0.5c-0.1-0.3,0.8-4.1,1.1-5.6
				c0.2-0.7,0.3-0.9,0.5-0.9c0.4,0,1.5,0.5,2.5,0.6c2,0.2,3.6,0.3,3.6,0.3h18.6c1.6,0,3.3-0.1,4.1-0.3c0.7-0.2,0.9-0.2,1.1-0.2
				c0.2,0,0.3,0.3,0.3,0.5c0,1.6-0.1,5.3-0.1,5.8c0,0.5-0.2,0.7-0.4,0.7c-0.3,0-0.4-0.2-0.4-0.7c0-0.2,0-0.2-0.1-0.8
				c-0.2-2.3-1-2.8-6.7-2.9c-2.2,0-3.9-0.1-5.5-0.1V30.6z"/>
			<path fill="#9FA1A4" d="M233.5,23.4c0.2,0,0.3,0,0.3-0.3v-1c0-7.5,0-8.8-0.1-10.3c-0.1-1.5-0.3-2.3-2.2-2.7
				c-0.4-0.1-1-0.1-1.4-0.1c-0.4,0-0.7-0.2-0.7-0.4c0-0.3,0.3-0.4,0.8-0.4c2.4,0,5.7,0.2,5.9,0.2c0.2,0,3.4-0.2,5.1-0.2
				c0.6,0,0.9,0.1,0.9,0.4c0,0.2-0.2,0.4-0.6,0.4c-0.3,0-0.8,0.1-1.1,0.1c-1.5,0.2-1.8,1.1-1.9,2.7c-0.1,1.5-0.1,2.8-0.1,10.3v8.5
				c0,4.6,0,8.3,0.2,10.4c0.2,1.4,0.5,2.5,1.9,2.7c0.7,0.1,1.5,0.2,2,0.2c0.5,0,0.7,0.2,0.7,0.4c0,0.3-0.3,0.4-0.8,0.4
				c-2.8,0-6.1-0.2-6.4-0.2c-0.2,0-3.5,0.2-5,0.2c-0.6,0-0.8-0.1-0.8-0.5c0-0.2,0.2-0.3,0.6-0.3c0.5,0,0.8,0,1.3-0.1
				c1-0.2,1.2-1.4,1.4-2.7c0.3-2,0.3-5.6,0.3-10.2v-5c0-0.2-0.2-0.3-0.3-0.3h-20.5c-0.2,0-0.3,0.1-0.3,0.3v5c0,4.6,0,8.3,0.3,10.3
				c0.2,1.2,0.5,2.4,1.9,2.5c0.7,0.1,1.6,0.2,2,0.2c0.4,0,0.7,0.2,0.7,0.4s-0.2,0.4-0.7,0.4c-2.9,0-6.2-0.2-6.5-0.2
				c-0.2,0-3.6,0.2-5.1,0.2c-0.6,0-0.9-0.1-0.9-0.4c0-0.2,0.1-0.4,0.6-0.4c0.5,0,0.9-0.1,1.4-0.2c1-0.2,1.2-1.3,1.4-2.5
				c0.3-2,0.3-5.8,0.3-10.5v-8.4c0-7.5,0-8.9-0.1-10.5c-0.1-1.5-0.5-2.5-2.1-2.7c-0.5-0.1-1.1-0.1-1.5-0.1c-0.4,0-0.6-0.2-0.6-0.3
				c0-0.3,0.3-0.4,0.8-0.4c2.4,0,5.1,0.2,5.9,0.2c0.2,0,3.5-0.2,5.1-0.2c0.6,0,0.8,0.1,0.8,0.4c0,0.2-0.2,0.3-0.6,0.3
				c-0.3,0-0.5,0-1.1,0.1c-1.4,0.2-1.8,1.2-1.9,2.8c-0.1,1.5-0.1,2.8-0.1,10.2v1c0,0.3,0.2,0.3,0.3,0.3H233.5z"/>
			<path fill="#9FA1A4" d="M247.5,26.3c0-7.5,5.8-18.8,19.8-18.8c11.2,0,19.7,6.7,19.7,18c0,10.8-8,19.6-20,19.6
				C253.1,45.2,247.5,34.9,247.5,26.3z M281.7,27c0-11.4-7-17.7-14.8-17.7c-7.9,0-14.2,4.9-14.2,15.6c0,11.1,6.2,18.4,15.7,18.4
				C272.2,43.3,281.7,41.4,281.7,27z"/>
			<path fill="#009BDE" d="M301.7,28.3c0,8.3,0.2,11.9,1.2,13c0.9,0.9,2.4,1.3,6.8,1.3c3,0,5.5-0.1,6.8-1.7c0.7-0.9,1.3-2.3,1.5-3.4
				c0.1-0.5,0.2-0.7,0.5-0.7c0.3,0,0.3,0.2,0.3,0.8c0,0.6-0.4,4-0.8,5.7c-0.4,1.3-0.6,1.5-3.6,1.5c-4.9,0-9.7-0.3-15.2-0.3
				c-1.8,0-3.5,0.2-5.5,0.2c-0.6,0-0.9-0.1-0.9-0.5c0-0.2,0.1-0.3,0.5-0.3c0.5,0,1.2-0.1,1.7-0.2c1.1-0.2,1.4-1.5,1.6-3.1
				c0.3-2.4,0.3-6.8,0.3-12.3v-10c0-8.8,0-10.4-0.1-12.2c-0.1-1.9-0.6-2.8-2.4-3.2c-0.5-0.1-1.4-0.2-1.9-0.2c-0.2,0-0.5-0.1-0.5-0.3
				c0-0.3,0.3-0.5,0.9-0.5c2.5,0,6.1,0.2,6.4,0.2c0.3,0,4.4-0.2,6.1-0.2c0.6,0,0.9,0.1,0.9,0.5c0,0.2-0.2,0.3-0.5,0.3
				c-0.4,0-1.2,0.1-1.9,0.2c-1.6,0.3-2.1,1.2-2.2,3.2c-0.1,1.8-0.1,3.4-0.1,12.2V28.3z"/>
			<path fill="#009BDE" d="M322.3,26.3c0-7.5,5.8-18.8,19.8-18.8c11.2,0,19.7,6.7,19.7,18c0,10.8-8,19.6-20,19.6
				C327.9,45.2,322.3,34.9,322.3,26.3z M356.5,27c0-11.4-7-17.7-14.8-17.7c-7.9,0-14.2,4.9-14.2,15.6c0,11.1,6.2,18.4,15.7,18.4
				C347,43.3,356.5,41.4,356.5,27z"/>
			<path fill="#009BDE" d="M401,40.4c0,2.3-0.1,2.3-0.7,2.7c-3.1,1.6-7.6,2.1-10.4,2.1c-3.7,0-10.8-0.3-16.6-5.1
				c-3.1-2.5-6.1-7.3-6.1-13.7c0-7.7,3.9-13.2,8.5-16c4.4-2.5,9.2-2.9,12.6-2.9c3.6,0,6.1,0.5,8.1,0.8c0.9,0.2,3.1,0.5,4.3,0.5
				c0.5,0,0.5,0.2,0.5,0.5c0,0.7-0.4,2.4-0.4,7.4c0,0.8-0.1,1-0.5,1c-0.3,0-0.3-0.3-0.4-0.7c0-0.5-0.2-2.3-1.1-3.5
				c-1.3-1.9-5.4-4-11.7-4c-3.1,0-6.6,0.1-10.4,3c-2.9,2.2-4.8,6.5-4.8,12.1c0,6.7,3.7,11.7,5.1,13.1c3.7,3.6,7.9,5.3,12.8,5.3
				c1.6,0,4.1-0.3,5.4-1c0.6-0.3,1-0.9,1-1.7v-8.1c0-3.7-0.3-4.5-2.3-4.8c-0.3-0.1-0.9-0.1-1.4-0.1c-0.5,0-0.7-0.2-0.7-0.4
				c0-0.3,0.2-0.4,0.8-0.4c2.3,0,5.5,0.1,5.8,0.1c0.2,0,3.6-0.1,5.1-0.1c0.6,0,0.8,0.1,0.8,0.4c0,0.2-0.2,0.4-0.7,0.4
				c-0.4,0-0.5,0-1,0.1c-1.4,0.2-1.7,1.2-1.8,2.8s-0.1,3.1-0.1,5.1V40.4z"/>
		</g>
	</g>
</g>
</svg>
