<?xml version="1.0" encoding="utf-8"?>
<!-- Generator: Adobe Illustrator 18.1.1, SVG Export Plug-In . SVG Version: 6.00 Build 0)  -->
<svg version="1.1" id="Layer_1" xmlns="http://www.w3.org/2000/svg" xmlns:xlink="http://www.w3.org/1999/xlink" x="0px" y="0px"
	 viewBox="638 322 124 124" enable-background="new 638 322 124 124" xml:space="preserve">
<path d="M699.9,322c-33.8,0-61.9,27.2-61.9,61s28.2,62,62,62s62-28.2,62-62S733.7,322,699.9,322z M700.1,400L676,374h49L700.1,400z"
	/>
</svg>
