<?xml version="1.0" encoding="utf-8"?>
<!-- Generator: Adobe Illustrator 18.1.1, SVG Export Plug-In . SVG Version: 6.00 Build 0)  -->
<svg version="1.1" id="Layer_1" xmlns="http://www.w3.org/2000/svg" xmlns:xlink="http://www.w3.org/1999/xlink" x="0px" y="0px"
	 viewBox="638 322 124 124" enable-background="new 638 322 124 124" xml:space="preserve">
<path d="M666,363l-28,28l28,28v-21h48v-14h-48V363z M762,350l-28-28v21h-48v13h48v22L762,350z"/>
</svg>
