[
  {
    "attributes": {
      "type": "Survey__c",
      "url": "/services/data/v37.0/sobjects/Survey__c/a6M7A0000008Sj6UAE"
    },
    "Id": "a6M7A0000008Sj6UAE",
    "Name": "SR00000011",
    "Name__c": "Proc Survey"
  },
  {
    "attributes": {
      "type": "Survey__c",
      "url": "/services/data/v37.0/sobjects/Survey__c/a6M7A0000000AFeUAM"
    },
    "Id": "a6M7A0000000AFeUAM",
    "Name": "SR00000007",
    "Name__c": "PROM101"
  },
  {
    "attributes": {
      "type": "Survey__c",
      "url": "/services/data/v37.0/sobjects/Survey__c/a6M7A0000008SkOUAU"
    },
    "Id": "a6M7A0000008SkOUAU",
    "Name": "SR00000012",
    "Name__c": "Intraoperative Data Collection Form"
  },
  {
    "attributes": {
      "type": "Survey__c",
      "url": "/services/data/v37.0/sobjects/Survey__c/a6M7A0000008SziUAE"
    },
    "Id": "a6M7A0000008SziUAE",
    "Name": "SR00000014",
    "Name__c": "KSS Post-Op"
  },
  {
    "attributes": {
      "type": "Survey__c",
      "url": "/services/data/v37.0/sobjects/Survey__c/a6M7A0000008SzdUAE"
    },
    "Id": "a6M7A0000008SzdUAE",
    "Name": "SR00000013",
    "Name__c": "KSS Pre-Op"
  },
  {
    "attributes": {
      "type": "Survey__c",
      "url": "/services/data/v37.0/sobjects/Survey__c/a6M7A0000008SznUAE"
    },
    "Id": "a6M7A0000008SznUAE",
    "Name": "SR00000015",
    "Name__c": "VR-12"
  },
  {
    "attributes": {
      "type": "Survey__c",
      "url": "/services/data/v37.0/sobjects/Survey__c/a6M7A0000000AEbUAM"
    },
    "Id": "a6M7A0000000AEbUAM",
    "Name": "SR00000003",
    "Name__c": "XYZ Survey"
  },
  {
    "attributes": {
      "type": "Survey__c",
      "url": "/services/data/v37.0/sobjects/Survey__c/a6M7A0000000AEdUAM"
    },
    "Id": "a6M7A0000000AEdUAM",
    "Name": "SR00000005",
    "Name__c": "SR00000002"
  },
  {
    "attributes": {
      "type": "Survey__c",
      "url": "/services/data/v37.0/sobjects/Survey__c/a6M7A0000000AEeUAM"
    },
    "Id": "a6M7A0000000AEeUAM",
    "Name": "SR00000006",
    "Name__c": "KOOS"
  }
]
