<?xml version="1.0" encoding="utf-8"?>
<!-- Generator: Adobe Illustrator 18.1.1, SVG Export Plug-In . SVG Version: 6.00 Build 0)  -->
<svg version="1.1" id="Layer_1" xmlns="http://www.w3.org/2000/svg" xmlns:xlink="http://www.w3.org/1999/xlink" x="0px" y="0px"
	 viewBox="639 318 128 128" enable-background="new 639 318 128 128" xml:space="preserve">
<path d="M730,397.1l-6,1l-2-2.1c7.2-8.3,11-19,11-31c0-26.1-20.9-47-47-47s-47,20.9-47,47s20.9,47,47,47c11.6,0,22.7-4.1,31-11l2,2
	v6l36,36l11-10.9L730,397.1z M686,398c-18.1,0-32-14.9-32-33s13.9-32,32-32s33,13.9,33,32S704.1,398,686,398z"/>
</svg>
