{
    "constructors": [],
    "externalReferences": [],
    "id": "01pU0000001G4EzIAK",
    "innerClasses": [],
    "interfaces": [],
    "key": "01pU0000001G4EzIAK",
    "methods": [
        {
            "annotations": [
                {
                    "name": "IsTest"
                }
            ],
            "location": {
                "column": 25,
                "line": 4
            },
            "modifiers": [
                "private",
                "static",
                "testMethod"
            ],
            "name": "testCaseViewExtension",
            "parameters": [],
            "references": [],
            "returnType": "void",
            "type": null
        }
    ],
    "name": "CaseViewExtensionTest",
    "namespace": null,
    "parentClass": "",
    "properties": [],
    "tableDeclaration": {
        "annotations": [
            {
                "name": "IsTest"
            }
        ],
        "location": {
            "column": 15,
            "line": 2
        },
        "modifiers": [
            "private",
            "testMethod"
        ],
        "name": "CaseViewExtensionTest",
        "references": [],
        "type": "CaseViewExtensionTest"
    },
    "variables": [
        {
            "annotations": [],
            "location": {
                "column": 11,
                "line": 7
            },
            "modifiers": [],
            "name": "testCase",
            "references": [],
            "type": "Case__c"
        },
        {
            "annotations": [],
            "location": {
                "column": 32,
                "line": 13
            },
            "modifiers": [],
            "name": "stdCase",
            "references": [],
            "type": "StandardController"
        },
        {
            "annotations": [],
            "location": {
                "column": 29,
                "line": 14
            },
            "modifiers": [],
            "name": "conExt",
            "references": [],
            "type": "CaseViewExtension"
        },
        {
            "annotations": [],
            "location": {
                "column": 25,
                "line": 21
            },
            "modifiers": [],
            "name": "pageRef",
            "references": [],
            "type": "PageReference"
        },
        {
            "annotations": [],
            "location": {
                "column": 25,
                "line": 22
            },
            "modifiers": [],
            "name": "pageRef2",
            "references": [],
            "type": "PageReference"
        }
    ]
}