{
    "constructors": [],
    "externalReferences": [],
    "id": "01p7A000000Ae2rQAC",
    "innerClasses": [],
    "interfaces": [],
    "key": "01p7A000000Ae2rQAC",
    "methods": [
        {
            "annotations": [
                {
                    "name": "IsTest"
                }
            ],
            "location": {
                "column": 14,
                "line": 8
            },
            "modifiers": [
                "private",
                "static",
                "testMethod"
            ],
            "name": "testGetItems",
            "parameters": [],
            "references": [],
            "returnType": "void",
            "type": null
        },
        {
            "annotations": [
                {
                    "name": "IsTest"
                }
            ],
            "location": {
                "column": 14,
                "line": 15
            },
            "modifiers": [
                "private",
                "static",
                "testMethod"
            ],
            "name": "createRandomIntegerTest",
            "parameters": [],
            "references": [],
            "returnType": "void",
            "type": null
        },
        {
            "annotations": [
                {
                    "name": "IsTest"
                }
            ],
            "location": {
                "column": 14,
                "line": 24
            },
            "modifiers": [
                "private",
                "static",
                "testMethod"
            ],
            "name": "testSave",
            "parameters": [],
            "references": [],
            "returnType": "void",
            "type": null
        },
        {
            "annotations": [
                {
                    "name": "IsTest"
                }
            ],
            "location": {
                "column": 14,
                "line": 35
            },
            "modifiers": [
                "private",
                "static",
                "testMethod"
            ],
            "name": "createRecordsToSave",
            "parameters": [],
            "references": [],
            "returnType": "void",
            "type": null
        },
        {
            "annotations": [
                {
                    "name": "IsTest"
                }
            ],
            "location": {
                "column": 14,
                "line": 47
            },
            "modifiers": [
                "private",
                "static",
                "testMethod"
            ],
            "name": "testGetRecordType",
            "parameters": [],
            "references": [],
            "returnType": "void",
            "type": null
        },
        {
            "annotations": [],
            "location": {
                "column": 17,
                "line": 54
            },
            "modifiers": [
                "private",
                "static"
            ],
            "name": "createTestRecord",
            "parameters": [],
            "references": [],
            "returnType": "Account",
            "type": null
        }
    ],
    "name": "IQ_CreateDataTest",
    "namespace": null,
    "parentClass": "",
    "properties": [
        {
            "annotations": [],
            "location": {
                "column": 16,
                "line": 4
            },
            "modifiers": [
                "private",
                "static"
            ],
            "name": "recordTypeName",
            "references": [],
            "type": "String"
        },
        {
            "annotations": [],
            "location": {
                "column": 16,
                "line": 5
            },
            "modifiers": [
                "private",
                "static"
            ],
            "name": "namePrefix",
            "references": [],
            "type": "String"
        }
    ],
    "tableDeclaration": {
        "annotations": [
            {
                "name": "IsTest"
            }
        ],
        "location": {
            "column": 14,
            "line": 2
        },
        "modifiers": [
            "public",
            "testMethod"
        ],
        "name": "IQ_CreateDataTest",
        "references": [],
        "type": "IQ_CreateDataTest"
    },
    "variables": [
        {
            "annotations": [],
            "location": {
                "column": 17,
                "line": 9
            },
            "modifiers": [],
            "name": "iq",
            "references": [],
            "type": "IQ_CreateData"
        },
        {
            "annotations": [],
            "location": {
                "column": 22,
                "line": 10
            },
            "modifiers": [],
            "name": "options",
            "references": [],
            "type": "LIST"
        },
        {
            "annotations": [],
            "location": {
                "column": 17,
                "line": 16
            },
            "modifiers": [],
            "name": "iq",
            "references": [],
            "type": "IQ_CreateData"
        },
        {
            "annotations": [],
            "location": {
                "column": 11,
                "line": 17
            },
            "modifiers": [],
            "name": "ran",
            "references": [],
            "type": "Integer"
        },
        {
            "annotations": [],
            "location": {
                "column": 17,
                "line": 25
            },
            "modifiers": [],
            "name": "iq",
            "references": [],
            "type": "IQ_CreateData"
        },
        {
            "annotations": [],
            "location": {
                "column": 11,
                "line": 27
            },
            "modifiers": [],
            "name": "acct",
            "references": [],
            "type": "Account"
        },
        {
            "annotations": [],
            "location": {
                "column": 10,
                "line": 28
            },
            "modifiers": [],
            "name": "acctName",
            "references": [],
            "type": "String"
        },
        {
            "annotations": [],
            "location": {
                "column": 19,
                "line": 30
            },
            "modifiers": [],
            "name": "accts",
            "references": [],
            "type": "LIST"
        },
        {
            "annotations": [],
            "location": {
                "column": 17,
                "line": 36
            },
            "modifiers": [],
            "name": "iq",
            "references": [],
            "type": "IQ_CreateData"
        },
        {
            "annotations": [],
            "location": {
                "column": 11,
                "line": 39
            },
            "modifiers": [],
            "name": "acct",
            "references": [],
            "type": "Account"
        },
        {
            "annotations": [],
            "location": {
                "column": 19,
                "line": 42
            },
            "modifiers": [],
            "name": "accts",
            "references": [],
            "type": "LIST"
        },
        {
            "annotations": [],
            "location": {
                "column": 17,
                "line": 48
            },
            "modifiers": [],
            "name": "iq",
            "references": [],
            "type": "IQ_CreateData"
        },
        {
            "annotations": [],
            "location": {
                "column": 6,
                "line": 49
            },
            "modifiers": [],
            "name": "recId",
            "references": [],
            "type": "Id"
        },
        {
            "annotations": [],
            "location": {
                "column": 10,
                "line": 50
            },
            "modifiers": [],
            "name": "srecId",
            "references": [],
            "type": "String"
        },
        {
            "annotations": [],
            "location": {
                "column": 11,
                "line": 55
            },
            "modifiers": [],
            "name": "acct",
            "references": [],
            "type": "Account"
        },
        {
            "annotations": [],
            "location": {
                "column": 10,
                "line": 56
            },
            "modifiers": [],
            "name": "acctName",
            "references": [],
            "type": "String"
        }
    ]
}