{
    "constructors": [
        {
            "annotations": [],
            "location": {
                "column": 12,
                "line": 8
            },
            "modifiers": [
                "public"
            ],
            "name": "IQ_CreateData",
            "parameters": [],
            "references": [],
            "type": null
        }
    ],
    "externalReferences": [],
    "id": "01p7A000000Ae1AQAS",
    "innerClasses": [],
    "interfaces": [],
    "key": "01p7A000000Ae1AQAS",
    "methods": [
        {
            "annotations": [],
            "location": {
                "column": 31,
                "line": 14
            },
            "modifiers": [
                "public"
            ],
            "name": "getItems",
            "parameters": [],
            "references": [],
            "returnType": "LIST",
            "type": null
        },
        {
            "annotations": [],
            "location": {
                "column": 17,
                "line": 21
            },
            "modifiers": [
                "public"
            ],
            "name": "createRecordsToSave",
            "parameters": [],
            "references": [],
            "returnType": "void",
            "type": null
        },
        {
            "annotations": [],
            "location": {
                "column": 17,
                "line": 38
            },
            "modifiers": [
                "public"
            ],
            "name": "save",
            "parameters": [
                {
                    "name": "acct",
                    "type": "Account"
                }
            ],
            "references": [],
            "returnType": "void",
            "type": null
        },
        {
            "annotations": [],
            "location": {
                "column": 16,
                "line": 53
            },
            "modifiers": [
                "private"
            ],
            "name": "getRecordType",
            "parameters": [],
            "references": [],
            "returnType": "Id",
            "type": null
        },
        {
            "annotations": [],
            "location": {
                "column": 15,
                "line": 66
            },
            "modifiers": [
                "public"
            ],
            "name": "getRecordType",
            "parameters": [
                {
                    "name": "recordTypeName",
                    "type": "String"
                }
            ],
            "references": [],
            "returnType": "Id",
            "type": null
        },
        {
            "annotations": [],
            "location": {
                "column": 27,
                "line": 47
            },
            "modifiers": [
                "static",
                "public"
            ],
            "name": "createRandomInteger",
            "parameters": [],
            "references": [],
            "returnType": "Integer",
            "type": null
        }
    ],
    "name": "IQ_CreateData",
    "namespace": null,
    "parentClass": "",
    "properties": [
        {
            "annotations": [],
            "location": {
                "column": 20,
                "line": 3
            },
            "modifiers": [
                "public"
            ],
            "name": "account",
            "references": [],
            "type": "Account"
        },
        {
            "annotations": [],
            "location": {
                "column": 19,
                "line": 4
            },
            "modifiers": [
                "public"
            ],
            "name": "recordTypeName",
            "references": [],
            "type": "String"
        },
        {
            "annotations": [],
            "location": {
                "column": 20,
                "line": 5
            },
            "modifiers": [
                "public"
            ],
            "name": "recordsToCreate",
            "references": [],
            "type": "Integer"
        },
        {
            "annotations": [],
            "location": {
                "column": 19,
                "line": 6
            },
            "modifiers": [
                "public"
            ],
            "name": "namePrefix",
            "references": [],
            "type": "String"
        }
    ],
    "tableDeclaration": {
        "annotations": [],
        "location": {
            "column": 14,
            "line": 1
        },
        "modifiers": [
            "public"
        ],
        "name": "IQ_CreateData",
        "references": [],
        "type": "IQ_CreateData"
    },
    "variables": [
        {
            "annotations": [],
            "location": {
                "column": 28,
                "line": 15
            },
            "modifiers": [],
            "name": "options",
            "references": [],
            "type": "LIST"
        },
        {
            "annotations": [],
            "location": {
                "column": 12,
                "line": 24
            },
            "modifiers": [],
            "name": "recordId",
            "references": [],
            "type": "Id"
        },
        {
            "annotations": [],
            "location": {
                "column": 17,
                "line": 28
            },
            "modifiers": [],
            "name": "recs",
            "references": [],
            "type": "Integer"
        },
        {
            "annotations": [],
            "location": {
                "column": 22,
                "line": 29
            },
            "modifiers": [],
            "name": "i",
            "references": [],
            "type": "Integer"
        },
        {
            "annotations": [],
            "location": {
                "column": 21,
                "line": 30
            },
            "modifiers": [],
            "name": "acct",
            "references": [],
            "type": "Account"
        },
        {
            "annotations": [],
            "location": {
                "column": 30,
                "line": 38
            },
            "modifiers": [],
            "name": "acct",
            "references": [],
            "type": "Account"
        },
        {
            "annotations": [],
            "location": {
                "column": 12,
                "line": 42
            },
            "modifiers": [],
            "name": "recordId",
            "references": [],
            "type": "Id"
        },
        {
            "annotations": [],
            "location": {
                "column": 38,
                "line": 54
            },
            "modifiers": [],
            "name": "r",
            "references": [],
            "type": "DescribeSObjectResult"
        },
        {
            "annotations": [],
            "location": {
                "column": 31,
                "line": 55
            },
            "modifiers": [],
            "name": "rt",
            "references": [],
            "type": "LIST"
        },
        {
            "annotations": [],
            "location": {
                "column": 22,
                "line": 57
            },
            "modifiers": [],
            "name": "i",
            "references": [],
            "type": "Integer"
        },
        {
            "annotations": [],
            "location": {
                "column": 12,
                "line": 61
            },
            "modifiers": [],
            "name": "recordId",
            "references": [],
            "type": "Id"
        },
        {
            "annotations": [],
            "location": {
                "column": 36,
                "line": 66
            },
            "modifiers": [],
            "name": "recordTypeName",
            "references": [],
            "type": "String"
        },
        {
            "annotations": [],
            "location": {
                "column": 12,
                "line": 67
            },
            "modifiers": [],
            "name": "recordId",
            "references": [],
            "type": "Id"
        },
        {
            "annotations": [],
            "location": {
                "column": 17,
                "line": 48
            },
            "modifiers": [],
            "name": "upperLimit",
            "references": [],
            "type": "Integer"
        },
        {
            "annotations": [],
            "location": {
                "column": 14,
                "line": 49
            },
            "modifiers": [],
            "name": "rand",
            "references": [],
            "type": "Integer"
        }
    ]
}