{
    "constructors": [
        {
            "annotations": [],
            "location": {
                "column": 9,
                "line": 6
            },
            "modifiers": [
                "public"
            ],
            "name": "IQ_DashboardDataController",
            "parameters": [],
            "references": [],
            "type": null
        }
    ],
    "externalReferences": [],
    "id": "01p7A000000EfePQAS",
    "innerClasses": [],
    "interfaces": [],
    "key": "01p7A000000EfePQAS",
    "methods": [
        {
            "annotations": [],
            "location": {
                "column": 14,
                "line": 10
            },
            "modifiers": [
                "public"
            ],
            "name": "GetSensorDataLines",
            "parameters": [],
            "references": [],
            "returnType": "void",
            "type": null
        },
        {
            "annotations": [],
            "location": {
                "column": 17,
                "line": 20
            },
            "modifiers": [
                "public"
            ],
            "name": "AggregateMonthKneeBalanceData",
            "parameters": [],
            "references": [],
            "returnType": "void",
            "type": null
        },
        {
            "annotations": [],
            "location": {
                "column": 17,
                "line": 29
            },
            "modifiers": [
                "public"
            ],
            "name": "AggregateMonthKneeBalanceData2",
            "parameters": [],
            "references": [],
            "returnType": "void",
            "type": null
        },
        {
            "annotations": [],
            "location": {
                "column": 14,
                "line": 39
            },
            "modifiers": [
                "public"
            ],
            "name": "AggregateKneeBalanceData",
            "parameters": [],
            "references": [],
            "returnType": "void",
            "type": null
        }
    ],
    "name": "IQ_DashboardDataController",
    "namespace": null,
    "parentClass": "",
    "properties": [
        {
            "annotations": [],
            "location": {
                "column": 31,
                "line": 2
            },
            "modifiers": [
                "public"
            ],
            "name": "sensors",
            "references": [],
            "type": "LIST"
        },
        {
            "annotations": [],
            "location": {
                "column": 30,
                "line": 3
            },
            "modifiers": [
                "public"
            ],
            "name": "allSensors",
            "references": [],
            "type": "LIST"
        },
        {
            "annotations": [],
            "location": {
                "column": 39,
                "line": 4
            },
            "modifiers": [
                "public"
            ],
            "name": "monthlyData",
            "references": [],
            "type": "LIST"
        }
    ],
    "tableDeclaration": {
        "annotations": [],
        "location": {
            "column": 27,
            "line": 1
        },
        "modifiers": [
            "public",
            "with sharing"
        ],
        "name": "IQ_DashboardDataController",
        "references": [],
        "type": "IQ_DashboardDataController"
    },
    "variables": [
        {
            "annotations": [],
            "location": {
                "column": 11,
                "line": 11
            },
            "modifiers": [],
            "name": "eventStartDate",
            "references": [],
            "type": "Date"
        },
        {
            "annotations": [],
            "location": {
                "column": 11,
                "line": 12
            },
            "modifiers": [],
            "name": "eventEndDate",
            "references": [],
            "type": "Date"
        },
        {
            "annotations": [],
            "location": {
                "column": 34,
                "line": 14
            },
            "modifiers": [],
            "name": "repo",
            "references": [],
            "type": "IQ_KneeBalanceAggregator"
        },
        {
            "annotations": [],
            "location": {
                "column": 8,
                "line": 21
            },
            "modifiers": [],
            "name": "eventStartDate",
            "references": [],
            "type": "Date"
        },
        {
            "annotations": [],
            "location": {
                "column": 11,
                "line": 22
            },
            "modifiers": [],
            "name": "eventEndDate",
            "references": [],
            "type": "Date"
        },
        {
            "annotations": [],
            "location": {
                "column": 34,
                "line": 24
            },
            "modifiers": [],
            "name": "repo",
            "references": [],
            "type": "IQ_KneeBalanceAggregator"
        },
        {
            "annotations": [],
            "location": {
                "column": 8,
                "line": 30
            },
            "modifiers": [],
            "name": "eventStartDate",
            "references": [],
            "type": "Date"
        },
        {
            "annotations": [],
            "location": {
                "column": 11,
                "line": 31
            },
            "modifiers": [],
            "name": "eventEndDate",
            "references": [],
            "type": "Date"
        },
        {
            "annotations": [],
            "location": {
                "column": 34,
                "line": 33
            },
            "modifiers": [],
            "name": "repo",
            "references": [],
            "type": "IQ_KneeBalanceAggregator"
        },
        {
            "annotations": [],
            "location": {
                "column": 8,
                "line": 40
            },
            "modifiers": [],
            "name": "eventStartDate",
            "references": [],
            "type": "Date"
        },
        {
            "annotations": [],
            "location": {
                "column": 11,
                "line": 41
            },
            "modifiers": [],
            "name": "eventEndDate",
            "references": [],
            "type": "Date"
        },
        {
            "annotations": [],
            "location": {
                "column": 34,
                "line": 43
            },
            "modifiers": [],
            "name": "repo",
            "references": [],
            "type": "IQ_KneeBalanceAggregator"
        }
    ]
}