{
    "constructors": [],
    "externalReferences": [],
    "id": "01p7A000000EKaHQAW",
    "innerClasses": [],
    "interfaces": [],
    "key": "01p7A000000EKaHQAW",
    "methods": [
        {
            "annotations": [
                {
                    "name": "IsTest"
                }
            ],
            "location": {
                "column": 25,
                "line": 4
            },
            "modifiers": [
                "private",
                "static",
                "testMethod"
            ],
            "name": "GetPreopPatientActivityTest",
            "parameters": [],
            "references": [],
            "returnType": "void",
            "type": null
        },
        {
            "annotations": [
                {
                    "name": "IsTest"
                }
            ],
            "location": {
                "column": 25,
                "line": 9
            },
            "modifiers": [
                "private",
                "static",
                "testMethod"
            ],
            "name": "GetProceduresPerMonthbyPracticeTest",
            "parameters": [],
            "references": [],
            "returnType": "void",
            "type": null
        },
        {
            "annotations": [
                {
                    "name": "IsTest"
                }
            ],
            "location": {
                "column": 25,
                "line": 24
            },
            "modifiers": [
                "private",
                "static",
                "testMethod"
            ],
            "name": "GetProceduresPerMonthbySurgeonTest",
            "parameters": [],
            "references": [],
            "returnType": "void",
            "type": null
        },
        {
            "annotations": [
                {
                    "name": "IsTest"
                }
            ],
            "location": {
                "column": 25,
                "line": 36
            },
            "modifiers": [
                "private",
                "static",
                "testMethod"
            ],
            "name": "GetSurgeonsTest",
            "parameters": [],
            "references": [],
            "returnType": "void",
            "type": null
        },
        {
            "annotations": [
                {
                    "name": "IsTest"
                }
            ],
            "location": {
                "column": 24,
                "line": 44
            },
            "modifiers": [
                "static",
                "public",
                "testMethod"
            ],
            "name": "PatientActionsControllerTest",
            "parameters": [],
            "references": [],
            "returnType": "void",
            "type": null
        },
        {
            "annotations": [
                {
                    "name": "IsTest"
                }
            ],
            "location": {
                "column": 25,
                "line": 51
            },
            "modifiers": [
                "private",
                "static",
                "testMethod"
            ],
            "name": "CalcMonthDifferenceTest",
            "parameters": [],
            "references": [],
            "returnType": "void",
            "type": null
        },
        {
            "annotations": [
                {
                    "name": "IsTest"
                }
            ],
            "location": {
                "column": 25,
                "line": 59
            },
            "modifiers": [
                "private",
                "static",
                "testMethod"
            ],
            "name": "getSurgeonFromListTest",
            "parameters": [],
            "references": [],
            "returnType": "void",
            "type": null
        },
        {
            "annotations": [
                {
                    "name": "IsTest"
                }
            ],
            "location": {
                "column": 25,
                "line": 67
            },
            "modifiers": [
                "private",
                "static",
                "testMethod"
            ],
            "name": "getPhaseCountTest",
            "parameters": [],
            "references": [],
            "returnType": "void",
            "type": null
        },
        {
            "annotations": [
                {
                    "name": "IsTest"
                }
            ],
            "location": {
                "column": 25,
                "line": 77
            },
            "modifiers": [
                "private",
                "static",
                "testMethod"
            ],
            "name": "GetPracticeSensorAveragesTest",
            "parameters": [],
            "references": [],
            "returnType": "void",
            "type": null
        },
        {
            "annotations": [
                {
                    "name": "IsTest"
                }
            ],
            "location": {
                "column": 25,
                "line": 84
            },
            "modifiers": [
                "private",
                "static",
                "testMethod"
            ],
            "name": "GetMonthlyPracticeSensorAveragesTest",
            "parameters": [],
            "references": [],
            "returnType": "void",
            "type": null
        },
        {
            "annotations": [
                {
                    "name": "IsTest"
                }
            ],
            "location": {
                "column": 25,
                "line": 92
            },
            "modifiers": [
                "private",
                "static",
                "testMethod"
            ],
            "name": "GetSurgeonSensorAveragesTest",
            "parameters": [],
            "references": [],
            "returnType": "void",
            "type": null
        },
        {
            "annotations": [
                {
                    "name": "IsTest"
                }
            ],
            "location": {
                "column": 25,
                "line": 100
            },
            "modifiers": [
                "private",
                "static",
                "testMethod"
            ],
            "name": "GetMonthlySurgeonSensorAveragesTest",
            "parameters": [],
            "references": [],
            "returnType": "void",
            "type": null
        }
    ],
    "name": "IQ_DashboardRepositoryTest",
    "namespace": null,
    "parentClass": "",
    "properties": [],
    "tableDeclaration": {
        "annotations": [
            {
                "name": "IsTest"
            }
        ],
        "location": {
            "column": 14,
            "line": 2
        },
        "modifiers": [
            "public",
            "testMethod"
        ],
        "name": "IQ_DashboardRepositoryTest",
        "references": [],
        "type": "IQ_DashboardRepositoryTest"
    },
    "variables": [
        {
            "annotations": [],
            "location": {
                "column": 17,
                "line": 5
            },
            "modifiers": [],
            "name": "preops",
            "references": [],
            "type": "Integer"
        },
        {
            "annotations": [],
            "location": {
                "column": 14,
                "line": 11
            },
            "modifiers": [],
            "name": "startDate",
            "references": [],
            "type": "Date"
        },
        {
            "annotations": [],
            "location": {
                "column": 14,
                "line": 12
            },
            "modifiers": [],
            "name": "endDate",
            "references": [],
            "type": "Date"
        },
        {
            "annotations": [],
            "location": {
                "column": 16,
                "line": 13
            },
            "modifiers": [],
            "name": "hospitalId",
            "references": [],
            "type": "String"
        },
        {
            "annotations": [],
            "location": {
                "column": 16,
                "line": 15
            },
            "modifiers": [],
            "name": "sdate",
            "references": [],
            "type": "String"
        },
        {
            "annotations": [],
            "location": {
                "column": 16,
                "line": 16
            },
            "modifiers": [],
            "name": "eDate",
            "references": [],
            "type": "String"
        },
        {
            "annotations": [],
            "location": {
                "column": 51,
                "line": 17
            },
            "modifiers": [],
            "name": "result",
            "references": [],
            "type": "LIST"
        },
        {
            "annotations": [],
            "location": {
                "column": 16,
                "line": 26
            },
            "modifiers": [],
            "name": "sdate",
            "references": [],
            "type": "String"
        },
        {
            "annotations": [],
            "location": {
                "column": 16,
                "line": 27
            },
            "modifiers": [],
            "name": "eDate",
            "references": [],
            "type": "String"
        },
        {
            "annotations": [],
            "location": {
                "column": 51,
                "line": 29
            },
            "modifiers": [],
            "name": "result",
            "references": [],
            "type": "LIST"
        },
        {
            "annotations": [],
            "location": {
                "column": 35,
                "line": 38
            },
            "modifiers": [],
            "name": "surgeons",
            "references": [],
            "type": "LIST"
        },
        {
            "annotations": [],
            "location": {
                "column": 27,
                "line": 46
            },
            "modifiers": [],
            "name": "ctrl",
            "references": [],
            "type": "IQ_PatientActions"
        },
        {
            "annotations": [],
            "location": {
                "column": 32,
                "line": 47
            },
            "modifiers": [],
            "name": "dash",
            "references": [],
            "type": "IQ_DashboardRepository"
        },
        {
            "annotations": [],
            "location": {
                "column": 17,
                "line": 53
            },
            "modifiers": [],
            "name": "result",
            "references": [],
            "type": "Integer"
        },
        {
            "annotations": [],
            "location": {
                "column": 16,
                "line": 61
            },
            "modifiers": [],
            "name": "surgeonId",
            "references": [],
            "type": "String"
        },
        {
            "annotations": [],
            "location": {
                "column": 35,
                "line": 62
            },
            "modifiers": [],
            "name": "surgeons",
            "references": [],
            "type": "LIST"
        },
        {
            "annotations": [],
            "location": {
                "column": 29,
                "line": 63
            },
            "modifiers": [],
            "name": "sh",
            "references": [],
            "type": "Surgeon_Hospital__c"
        },
        {
            "annotations": [],
            "location": {
                "column": 16,
                "line": 68
            },
            "modifiers": [],
            "name": "phase",
            "references": [],
            "type": "String"
        },
        {
            "annotations": [],
            "location": {
                "column": 16,
                "line": 69
            },
            "modifiers": [],
            "name": "userType",
            "references": [],
            "type": "String"
        },
        {
            "annotations": [],
            "location": {
                "column": 16,
                "line": 70
            },
            "modifiers": [],
            "name": "id",
            "references": [],
            "type": "String"
        },
        {
            "annotations": [],
            "location": {
                "column": 16,
                "line": 71
            },
            "modifiers": [],
            "name": "startDate",
            "references": [],
            "type": "String"
        },
        {
            "annotations": [],
            "location": {
                "column": 16,
                "line": 72
            },
            "modifiers": [],
            "name": "endDate",
            "references": [],
            "type": "String"
        },
        {
            "annotations": [],
            "location": {
                "column": 30,
                "line": 73
            },
            "modifiers": [],
            "name": "counts",
            "references": [],
            "type": "LIST"
        },
        {
            "annotations": [],
            "location": {
                "column": 16,
                "line": 78
            },
            "modifiers": [],
            "name": "id",
            "references": [],
            "type": "String"
        },
        {
            "annotations": [],
            "location": {
                "column": 49,
                "line": 80
            },
            "modifiers": [],
            "name": "data",
            "references": [],
            "type": "LIST"
        },
        {
            "annotations": [],
            "location": {
                "column": 16,
                "line": 85
            },
            "modifiers": [],
            "name": "id",
            "references": [],
            "type": "String"
        },
        {
            "annotations": [],
            "location": {
                "column": 43,
                "line": 87
            },
            "modifiers": [],
            "name": "data",
            "references": [],
            "type": "KneeBalance"
        },
        {
            "annotations": [],
            "location": {
                "column": 16,
                "line": 93
            },
            "modifiers": [],
            "name": "id",
            "references": [],
            "type": "String"
        },
        {
            "annotations": [],
            "location": {
                "column": 49,
                "line": 95
            },
            "modifiers": [],
            "name": "data",
            "references": [],
            "type": "LIST"
        },
        {
            "annotations": [],
            "location": {
                "column": 15,
                "line": 101
            },
            "modifiers": [],
            "name": "id",
            "references": [],
            "type": "String"
        },
        {
            "annotations": [],
            "location": {
                "column": 43,
                "line": 102
            },
            "modifiers": [],
            "name": "data",
            "references": [],
            "type": "KneeBalance"
        }
    ]
}