{
    "constructors": [],
    "externalReferences": [],
    "id": "01p7A000000EfYCQA0",
    "innerClasses": [],
    "interfaces": [],
    "key": "01p7A000000EfYCQA0",
    "methods": [
        {
            "annotations": [
                {
                    "name": "IsTest"
                }
            ],
            "location": {
                "column": 17,
                "line": 8
            },
            "modifiers": [
                "private",
                "static",
                "testMethod"
            ],
            "name": "GetSensorDataLinesTest",
            "parameters": [],
            "references": [],
            "returnType": "void",
            "type": null
        },
        {
            "annotations": [
                {
                    "name": "IsTest"
                }
            ],
            "location": {
                "column": 17,
                "line": 20
            },
            "modifiers": [
                "private",
                "static",
                "testMethod"
            ],
            "name": "AggregateMonthKneeBalanceDataTest",
            "parameters": [],
            "references": [],
            "returnType": "void",
            "type": null
        },
        {
            "annotations": [
                {
                    "name": "IsTest"
                }
            ],
            "location": {
                "column": 17,
                "line": 31
            },
            "modifiers": [
                "private",
                "static",
                "testMethod"
            ],
            "name": "AggregateKneeBalanceDataTest",
            "parameters": [],
            "references": [],
            "returnType": "void",
            "type": null
        }
    ],
    "name": "IQ_KneeBalanceAggregatorTest",
    "namespace": null,
    "parentClass": "",
    "properties": [
        {
            "annotations": [],
            "location": {
                "column": 10,
                "line": 4
            },
            "modifiers": [
                "private"
            ],
            "name": "eventStartDate",
            "references": [],
            "type": "Date"
        },
        {
            "annotations": [],
            "location": {
                "column": 10,
                "line": 5
            },
            "modifiers": [
                "private"
            ],
            "name": "eventEndDate",
            "references": [],
            "type": "Date"
        }
    ],
    "tableDeclaration": {
        "annotations": [
            {
                "name": "IsTest"
            }
        ],
        "location": {
            "column": 14,
            "line": 2
        },
        "modifiers": [
            "public",
            "testMethod"
        ],
        "name": "IQ_KneeBalanceAggregatorTest",
        "references": [],
        "type": "IQ_KneeBalanceAggregatorTest"
    },
    "variables": [
        {
            "annotations": [],
            "location": {
                "column": 11,
                "line": 9
            },
            "modifiers": [],
            "name": "eventStartDate",
            "references": [],
            "type": "Date"
        },
        {
            "annotations": [],
            "location": {
                "column": 11,
                "line": 10
            },
            "modifiers": [],
            "name": "eventEndDate",
            "references": [],
            "type": "Date"
        },
        {
            "annotations": [],
            "location": {
                "column": 34,
                "line": 12
            },
            "modifiers": [],
            "name": "repo",
            "references": [],
            "type": "IQ_KneeBalanceAggregator"
        },
        {
            "annotations": [],
            "location": {
                "column": 31,
                "line": 14
            },
            "modifiers": [],
            "name": "sensors",
            "references": [],
            "type": "LIST"
        },
        {
            "annotations": [],
            "location": {
                "column": 8,
                "line": 21
            },
            "modifiers": [],
            "name": "eventStartDate",
            "references": [],
            "type": "Date"
        },
        {
            "annotations": [],
            "location": {
                "column": 11,
                "line": 22
            },
            "modifiers": [],
            "name": "eventEndDate",
            "references": [],
            "type": "Date"
        },
        {
            "annotations": [],
            "location": {
                "column": 34,
                "line": 24
            },
            "modifiers": [],
            "name": "repo",
            "references": [],
            "type": "IQ_KneeBalanceAggregator"
        },
        {
            "annotations": [],
            "location": {
                "column": 8,
                "line": 32
            },
            "modifiers": [],
            "name": "eventStartDate",
            "references": [],
            "type": "Date"
        },
        {
            "annotations": [],
            "location": {
                "column": 11,
                "line": 33
            },
            "modifiers": [],
            "name": "eventEndDate",
            "references": [],
            "type": "Date"
        },
        {
            "annotations": [],
            "location": {
                "column": 34,
                "line": 35
            },
            "modifiers": [],
            "name": "repo",
            "references": [],
            "type": "IQ_KneeBalanceAggregator"
        }
    ]
}