{
    "constructors": [
        {
            "annotations": [],
            "location": {
                "column": 12,
                "line": 12
            },
            "modifiers": [
                "public"
            ],
            "name": "IQ_KneeBalanceAggregator",
            "parameters": [],
            "references": [],
            "type": null
        }
    ],
    "externalReferences": [],
    "id": "01p7A000000EfY7QAK",
    "innerClasses": [],
    "interfaces": [],
    "key": "01p7A000000EfY7QAK",
    "methods": [
        {
            "annotations": [],
            "location": {
                "column": 17,
                "line": 17
            },
            "modifiers": [
                "public"
            ],
            "name": "AggregateKneeBalanceData",
            "parameters": [
                {
                    "name": "startMonth",
                    "type": "Integer"
                },
                {
                    "name": "startYear",
                    "type": "Integer"
                },
                {
                    "name": "endMonth",
                    "type": "Integer"
                },
                {
                    "name": "endYear",
                    "type": "Integer"
                }
            ],
            "references": [],
            "returnType": "void",
            "type": null
        },
        {
            "annotations": [],
            "location": {
                "column": 42,
                "line": 57
            },
            "modifiers": [
                "public"
            ],
            "name": "GetAllMonthlySensorData",
            "parameters": [],
            "references": [],
            "returnType": "LIST",
            "type": null
        },
        {
            "annotations": [],
            "location": {
                "column": 17,
                "line": 63
            },
            "modifiers": [
                "public"
            ],
            "name": "AggregateMonthKneeBalanceData",
            "parameters": [
                {
                    "name": "month",
                    "type": "Integer"
                },
                {
                    "name": "year",
                    "type": "Integer"
                }
            ],
            "references": [],
            "returnType": "void",
            "type": null
        },
        {
            "annotations": [],
            "location": {
                "column": 27,
                "line": 104
            },
            "modifiers": [
                "public"
            ],
            "name": "GetDegreeByEvent",
            "parameters": [
                {
                    "name": "degree",
                    "type": "String"
                },
                {
                    "name": "sensors",
                    "type": "LIST"
                },
                {
                    "name": "event",
                    "type": "Event__c"
                }
            ],
            "references": [],
            "returnType": "SensorDataLine",
            "type": null
        },
        {
            "annotations": [],
            "location": {
                "column": 36,
                "line": 125
            },
            "modifiers": [
                "public"
            ],
            "name": "ConvertDataToAggregateFormat",
            "parameters": [
                {
                    "name": "sensor",
                    "type": "SensorDataLine"
                },
                {
                    "name": "event",
                    "type": "Event__c"
                }
            ],
            "references": [],
            "returnType": "IQ_MonthlySensorData__c",
            "type": null
        },
        {
            "annotations": [],
            "location": {
                "column": 21,
                "line": 155
            },
            "modifiers": [
                "public"
            ],
            "name": "GetEventDetails",
            "parameters": [
                {
                    "name": "eventId",
                    "type": "String"
                }
            ],
            "references": [],
            "returnType": "Event__c",
            "type": null
        },
        {
            "annotations": [],
            "location": {
                "column": 38,
                "line": 169
            },
            "modifiers": [
                "public"
            ],
            "name": "GetParents",
            "parameters": [],
            "references": [],
            "returnType": "LIST",
            "type": null
        },
        {
            "annotations": [],
            "location": {
                "column": 32,
                "line": 177
            },
            "modifiers": [
                "public"
            ],
            "name": "GetParent",
            "parameters": [
                {
                    "name": "Id",
                    "type": "String"
                }
            ],
            "references": [],
            "returnType": "Surgeon_Hospital__c",
            "type": null
        },
        {
            "annotations": [],
            "location": {
                "column": 33,
                "line": 190
            },
            "modifiers": [
                "public"
            ],
            "name": "LoadSensorDataLines",
            "parameters": [
                {
                    "name": "procedureId",
                    "type": "String"
                }
            ],
            "references": [],
            "returnType": "LIST",
            "type": null
        },
        {
            "annotations": [],
            "location": {
                "column": 34,
                "line": 197
            },
            "modifiers": [
                "public"
            ],
            "name": "GetSensorDataLines",
            "parameters": [
                {
                    "name": "eventStartDate",
                    "type": "Date"
                },
                {
                    "name": "eventEndDate",
                    "type": "Date"
                }
            ],
            "references": [],
            "returnType": "LIST",
            "type": null
        },
        {
            "annotations": [],
            "location": {
                "column": 17,
                "line": 211
            },
            "modifiers": [
                "public"
            ],
            "name": "SetDates",
            "parameters": [],
            "references": [],
            "returnType": "void",
            "type": null
        }
    ],
    "name": "IQ_KneeBalanceAggregator",
    "namespace": null,
    "parentClass": "",
    "properties": [
        {
            "annotations": [],
            "location": {
                "column": 17,
                "line": 2
            },
            "modifiers": [
                "public"
            ],
            "name": "startDate",
            "references": [],
            "type": "Date"
        },
        {
            "annotations": [],
            "location": {
                "column": 17,
                "line": 3
            },
            "modifiers": [
                "public"
            ],
            "name": "endDate",
            "references": [],
            "type": "Date"
        },
        {
            "annotations": [],
            "location": {
                "column": 20,
                "line": 4
            },
            "modifiers": [
                "public"
            ],
            "name": "monthsToAnalyze",
            "references": [],
            "type": "Integer"
        },
        {
            "annotations": [],
            "location": {
                "column": 10,
                "line": 5
            },
            "modifiers": [
                "private"
            ],
            "name": "firstDayOfFirstMonth",
            "references": [],
            "type": "Date"
        },
        {
            "annotations": [],
            "location": {
                "column": 10,
                "line": 6
            },
            "modifiers": [
                "private"
            ],
            "name": "lastDayofLastMonth",
            "references": [],
            "type": "Date"
        },
        {
            "annotations": [],
            "location": {
                "column": 20,
                "line": 7
            },
            "modifiers": [
                "public"
            ],
            "name": "monthsInThePast",
            "references": [],
            "type": "Integer"
        },
        {
            "annotations": [],
            "location": {
                "column": 38,
                "line": 8
            },
            "modifiers": [
                "public"
            ],
            "name": "accts",
            "references": [],
            "type": "LIST"
        },
        {
            "annotations": [],
            "location": {
                "column": 33,
                "line": 10
            },
            "modifiers": [
                "public"
            ],
            "name": "sensorDataLines",
            "references": [],
            "type": "LIST"
        }
    ],
    "tableDeclaration": {
        "annotations": [],
        "location": {
            "column": 30,
            "line": 1
        },
        "modifiers": [
            "public",
            "without sharing"
        ],
        "name": "IQ_KneeBalanceAggregator",
        "references": [],
        "type": "IQ_KneeBalanceAggregator"
    },
    "variables": [
        {
            "annotations": [],
            "location": {
                "column": 50,
                "line": 17
            },
            "modifiers": [],
            "name": "startMonth",
            "references": [],
            "type": "Integer"
        },
        {
            "annotations": [],
            "location": {
                "column": 70,
                "line": 17
            },
            "modifiers": [],
            "name": "startYear",
            "references": [],
            "type": "Integer"
        },
        {
            "annotations": [],
            "location": {
                "column": 89,
                "line": 17
            },
            "modifiers": [],
            "name": "endMonth",
            "references": [],
            "type": "Integer"
        },
        {
            "annotations": [],
            "location": {
                "column": 107,
                "line": 17
            },
            "modifiers": [],
            "name": "endYear",
            "references": [],
            "type": "Integer"
        },
        {
            "annotations": [],
            "location": {
                "column": 39,
                "line": 19
            },
            "modifiers": [],
            "name": "toDelete",
            "references": [],
            "type": "LIST"
        },
        {
            "annotations": [],
            "location": {
                "column": 21,
                "line": 26
            },
            "modifiers": [],
            "name": "months",
            "references": [],
            "type": "Integer"
        },
        {
            "annotations": [],
            "location": {
                "column": 21,
                "line": 27
            },
            "modifiers": [],
            "name": "years",
            "references": [],
            "type": "Integer"
        },
        {
            "annotations": [],
            "location": {
                "column": 26,
                "line": 37
            },
            "modifiers": [],
            "name": "i",
            "references": [],
            "type": "Integer"
        },
        {
            "annotations": [],
            "location": {
                "column": 25,
                "line": 38
            },
            "modifiers": [],
            "name": "month",
            "references": [],
            "type": "Integer"
        },
        {
            "annotations": [],
            "location": {
                "column": 25,
                "line": 44
            },
            "modifiers": [],
            "name": "year",
            "references": [],
            "type": "Integer"
        },
        {
            "annotations": [],
            "location": {
                "column": 55,
                "line": 63
            },
            "modifiers": [],
            "name": "month",
            "references": [],
            "type": "Integer"
        },
        {
            "annotations": [],
            "location": {
                "column": 70,
                "line": 63
            },
            "modifiers": [],
            "name": "year",
            "references": [],
            "type": "Integer"
        },
        {
            "annotations": [],
            "location": {
                "column": 14,
                "line": 66
            },
            "modifiers": [],
            "name": "eventStartDate",
            "references": [],
            "type": "Date"
        },
        {
            "annotations": [],
            "location": {
                "column": 14,
                "line": 67
            },
            "modifiers": [],
            "name": "eventEndDate",
            "references": [],
            "type": "Date"
        },
        {
            "annotations": [],
            "location": {
                "column": 31,
                "line": 69
            },
            "modifiers": [],
            "name": "sensorDataLines",
            "references": [],
            "type": "LIST"
        },
        {
            "annotations": [],
            "location": {
                "column": 39,
                "line": 74
            },
            "modifiers": [],
            "name": "monthlySensorData",
            "references": [],
            "type": "LIST"
        },
        {
            "annotations": [],
            "location": {
                "column": 30,
                "line": 77
            },
            "modifiers": [],
            "name": "allSensors",
            "references": [],
            "type": "LIST"
        },
        {
            "annotations": [],
            "location": {
                "column": 30,
                "line": 79
            },
            "modifiers": [],
            "name": "ar",
            "references": [],
            "type": "AggregateResult"
        },
        {
            "annotations": [],
            "location": {
                "column": 34,
                "line": 81
            },
            "modifiers": [],
            "name": "sensors",
            "references": [],
            "type": "LIST"
        },
        {
            "annotations": [],
            "location": {
                "column": 26,
                "line": 85
            },
            "modifiers": [],
            "name": "degrees",
            "references": [],
            "type": "LIST"
        },
        {
            "annotations": [],
            "location": {
                "column": 22,
                "line": 87
            },
            "modifiers": [],
            "name": "event",
            "references": [],
            "type": "Event__c"
        },
        {
            "annotations": [],
            "location": {
                "column": 29,
                "line": 90
            },
            "modifiers": [],
            "name": "degree",
            "references": [],
            "type": "String"
        },
        {
            "annotations": [],
            "location": {
                "column": 36,
                "line": 92
            },
            "modifiers": [],
            "name": "degreeEvent",
            "references": [],
            "type": "SensorDataLine"
        },
        {
            "annotations": [],
            "location": {
                "column": 49,
                "line": 94
            },
            "modifiers": [],
            "name": "eventDegree",
            "references": [],
            "type": "IQ_MonthlySensorData__c"
        },
        {
            "annotations": [],
            "location": {
                "column": 51,
                "line": 104
            },
            "modifiers": [],
            "name": "degree",
            "references": [],
            "type": "String"
        },
        {
            "annotations": [],
            "location": {
                "column": 80,
                "line": 104
            },
            "modifiers": [],
            "name": "sensors",
            "references": [],
            "type": "LIST"
        },
        {
            "annotations": [],
            "location": {
                "column": 98,
                "line": 104
            },
            "modifiers": [],
            "name": "event",
            "references": [],
            "type": "Event__c"
        },
        {
            "annotations": [],
            "location": {
                "column": 30,
                "line": 105
            },
            "modifiers": [],
            "name": "degreeSensor",
            "references": [],
            "type": "LIST"
        },
        {
            "annotations": [],
            "location": {
                "column": 29,
                "line": 106
            },
            "modifiers": [],
            "name": "sensor",
            "references": [],
            "type": "SensorDataLine"
        },
        {
            "annotations": [],
            "location": {
                "column": 24,
                "line": 111
            },
            "modifiers": [],
            "name": "lastDegreeSensor",
            "references": [],
            "type": "SensorDataLine"
        },
        {
            "annotations": [],
            "location": {
                "column": 33,
                "line": 115
            },
            "modifiers": [],
            "name": "toCompare",
            "references": [],
            "type": "SensorDataLine"
        },
        {
            "annotations": [],
            "location": {
                "column": 80,
                "line": 125
            },
            "modifiers": [],
            "name": "sensor",
            "references": [],
            "type": "SensorDataLine"
        },
        {
            "annotations": [],
            "location": {
                "column": 97,
                "line": 125
            },
            "modifiers": [],
            "name": "event",
            "references": [],
            "type": "Event__c"
        },
        {
            "annotations": [],
            "location": {
                "column": 33,
                "line": 126
            },
            "modifiers": [],
            "name": "aggregateRecord",
            "references": [],
            "type": "IQ_MonthlySensorData__c"
        },
        {
            "annotations": [],
            "location": {
                "column": 21,
                "line": 130
            },
            "modifiers": [],
            "name": "tempFlex",
            "references": [],
            "type": "Integer"
        },
        {
            "annotations": [],
            "location": {
                "column": 33,
                "line": 136
            },
            "modifiers": [],
            "name": "acct",
            "references": [],
            "type": "Surgeon_Hospital__c"
        },
        {
            "annotations": [],
            "location": {
                "column": 20,
                "line": 142
            },
            "modifiers": [],
            "name": "timeParts",
            "references": [],
            "type": "String"
        },
        {
            "annotations": [],
            "location": {
                "column": 44,
                "line": 155
            },
            "modifiers": [],
            "name": "eventId",
            "references": [],
            "type": "String"
        },
        {
            "annotations": [],
            "location": {
                "column": 24,
                "line": 158
            },
            "modifiers": [],
            "name": "events",
            "references": [],
            "type": "LIST"
        },
        {
            "annotations": [],
            "location": {
                "column": 35,
                "line": 170
            },
            "modifiers": [],
            "name": "accts",
            "references": [],
            "type": "LIST"
        },
        {
            "annotations": [],
            "location": {
                "column": 49,
                "line": 177
            },
            "modifiers": [],
            "name": "Id",
            "references": [],
            "type": "String"
        },
        {
            "annotations": [],
            "location": {
                "column": 29,
                "line": 179
            },
            "modifiers": [],
            "name": "acct",
            "references": [],
            "type": "Surgeon_Hospital__c"
        },
        {
            "annotations": [],
            "location": {
                "column": 34,
                "line": 180
            },
            "modifiers": [],
            "name": "found",
            "references": [],
            "type": "Surgeon_Hospital__c"
        },
        {
            "annotations": [],
            "location": {
                "column": 60,
                "line": 190
            },
            "modifiers": [],
            "name": "procedureId",
            "references": [],
            "type": "String"
        },
        {
            "annotations": [],
            "location": {
                "column": 36,
                "line": 191
            },
            "modifiers": [],
            "name": "controller",
            "references": [],
            "type": "ProcedureSummaryController"
        },
        {
            "annotations": [],
            "location": {
                "column": 58,
                "line": 197
            },
            "modifiers": [],
            "name": "eventStartDate",
            "references": [],
            "type": "Date"
        },
        {
            "annotations": [],
            "location": {
                "column": 79,
                "line": 197
            },
            "modifiers": [],
            "name": "eventEndDate",
            "references": [],
            "type": "Date"
        },
        {
            "annotations": [],
            "location": {
                "column": 31,
                "line": 198
            },
            "modifiers": [],
            "name": "sensorDataLines",
            "references": [],
            "type": "LIST"
        },
        {
            "annotations": [],
            "location": {
                "column": 14,
                "line": 213
            },
            "modifiers": [],
            "name": "today",
            "references": [],
            "type": "Date"
        },
        {
            "annotations": [],
            "location": {
                "column": 14,
                "line": 215
            },
            "modifiers": [],
            "name": "firstDayofThisMonth",
            "references": [],
            "type": "Date"
        }
    ]
}