{
    "constructors": [],
    "externalReferences": [],
    "id": "01p7A000000EkTSQA0",
    "innerClasses": [
        {
            "constructors": [],
            "externalReferences": [],
            "id": null,
            "innerClasses": [],
            "interfaces": [],
            "key": null,
            "methods": [],
            "name": "Delta",
            "namespace": null,
            "parentClass": "",
            "properties": [
                {
                    "annotations": [],
                    "location": {
                        "column": 16,
                        "line": 59
                    },
                    "modifiers": [
                        "public"
                    ],
                    "name": "caseId",
                    "references": [],
                    "type": "String"
                },
                {
                    "annotations": [],
                    "location": {
                        "column": 17,
                        "line": 60
                    },
                    "modifiers": [
                        "public"
                    ],
                    "name": "post8Week",
                    "references": [],
                    "type": "Decimal"
                },
                {
                    "annotations": [],
                    "location": {
                        "column": 17,
                        "line": 61
                    },
                    "modifiers": [
                        "public"
                    ],
                    "name": "post6Month",
                    "references": [],
                    "type": "Decimal"
                },
                {
                    "annotations": [],
                    "location": {
                        "column": 17,
                        "line": 62
                    },
                    "modifiers": [
                        "public"
                    ],
                    "name": "post12Month",
                    "references": [],
                    "type": "Decimal"
                }
            ],
            "tableDeclaration": {
                "annotations": [],
                "location": {
                    "column": 7,
                    "line": 58
                },
                "modifiers": [],
                "name": "Delta",
                "references": [],
                "type": "Delta"
            },
            "variables": []
        }
    ],
    "interfaces": [],
    "key": "01p7A000000EkTSQA0",
    "methods": [
        {
            "annotations": [],
            "location": {
                "column": 14,
                "line": 12
            },
            "modifiers": [
                "public"
            ],
            "name": "Process",
            "parameters": [],
            "references": [],
            "returnType": "void",
            "type": null
        },
        {
            "annotations": [],
            "location": {
                "column": 24,
                "line": 20
            },
            "modifiers": [
                "public"
            ],
            "name": "GetProcedures",
            "parameters": [],
            "references": [],
            "returnType": "LIST",
            "type": null
        },
        {
            "annotations": [],
            "location": {
                "column": 24,
                "line": 27
            },
            "modifiers": [
                "public"
            ],
            "name": "RemoveEventsMissingPreopProm",
            "parameters": [
                {
                    "name": "events",
                    "type": "LIST"
                }
            ],
            "references": [],
            "returnType": "LIST",
            "type": null
        },
        {
            "annotations": [],
            "location": {
                "column": 17,
                "line": 37
            },
            "modifiers": [
                "public"
            ],
            "name": "PreopExists",
            "parameters": [
                {
                    "name": "event",
                    "type": "Event__c"
                }
            ],
            "references": [],
            "returnType": "Boolean",
            "type": null
        }
    ],
    "name": "IQ_PromDeltaAggregate",
    "namespace": null,
    "parentClass": "",
    "properties": [
        {
            "annotations": [],
            "location": {
                "column": 14,
                "line": 2
            },
            "modifiers": [
                "public"
            ],
            "name": "startDate",
            "references": [],
            "type": "Date"
        },
        {
            "annotations": [],
            "location": {
                "column": 17,
                "line": 3
            },
            "modifiers": [
                "public"
            ],
            "name": "endDate",
            "references": [],
            "type": "Date"
        },
        {
            "annotations": [],
            "location": {
                "column": 20,
                "line": 4
            },
            "modifiers": [
                "public"
            ],
            "name": "monthsToAnalyze",
            "references": [],
            "type": "Integer"
        },
        {
            "annotations": [],
            "location": {
                "column": 10,
                "line": 5
            },
            "modifiers": [
                "private"
            ],
            "name": "firstDayOfFirstMonth",
            "references": [],
            "type": "Date"
        },
        {
            "annotations": [],
            "location": {
                "column": 10,
                "line": 6
            },
            "modifiers": [
                "private"
            ],
            "name": "lastDayofLastMonth",
            "references": [],
            "type": "Date"
        },
        {
            "annotations": [],
            "location": {
                "column": 20,
                "line": 7
            },
            "modifiers": [
                "public"
            ],
            "name": "monthsInThePast",
            "references": [],
            "type": "Integer"
        },
        {
            "annotations": [],
            "location": {
                "column": 38,
                "line": 8
            },
            "modifiers": [
                "public"
            ],
            "name": "accts",
            "references": [],
            "type": "LIST"
        },
        {
            "annotations": [],
            "location": {
                "column": 21,
                "line": 9
            },
            "modifiers": [
                "public"
            ],
            "name": "currentPreopEvent",
            "references": [],
            "type": "Event__c"
        },
        {
            "annotations": [],
            "location": {
                "column": 24,
                "line": 10
            },
            "modifiers": [
                "public"
            ],
            "name": "deltas",
            "references": [],
            "type": "LIST"
        }
    ],
    "tableDeclaration": {
        "annotations": [],
        "location": {
            "column": 30,
            "line": 1
        },
        "modifiers": [
            "public",
            "without sharing"
        ],
        "name": "IQ_PromDeltaAggregate",
        "references": [],
        "type": "IQ_PromDeltaAggregate"
    },
    "variables": [
        {
            "annotations": [],
            "location": {
                "column": 18,
                "line": 14
            },
            "modifiers": [],
            "name": "events",
            "references": [],
            "type": "LIST"
        },
        {
            "annotations": [],
            "location": {
                "column": 18,
                "line": 21
            },
            "modifiers": [],
            "name": "events",
            "references": [],
            "type": "LIST"
        },
        {
            "annotations": [],
            "location": {
                "column": 68,
                "line": 27
            },
            "modifiers": [],
            "name": "events",
            "references": [],
            "type": "LIST"
        },
        {
            "annotations": [],
            "location": {
                "column": 18,
                "line": 28
            },
            "modifiers": [],
            "name": "eventsWithPreop",
            "references": [],
            "type": "LIST"
        },
        {
            "annotations": [],
            "location": {
                "column": 17,
                "line": 29
            },
            "modifiers": [],
            "name": "event",
            "references": [],
            "type": "Event__c"
        },
        {
            "annotations": [],
            "location": {
                "column": 38,
                "line": 37
            },
            "modifiers": [],
            "name": "event",
            "references": [],
            "type": "Event__c"
        },
        {
            "annotations": [],
            "location": {
                "column": 18,
                "line": 38
            },
            "modifiers": [],
            "name": "preopEvent",
            "references": [],
            "type": "LIST"
        },
        {
            "annotations": [],
            "location": {
                "column": 11,
                "line": 46
            },
            "modifiers": [],
            "name": "d",
            "references": [],
            "type": "Delta"
        }
    ]
}