{
    "constructors": [],
    "externalReferences": [],
    "id": "01p7A000000AorLQAS",
    "innerClasses": [],
    "interfaces": [],
    "key": "01p7A000000AorLQAS",
    "methods": [
        {
            "annotations": [
                {
                    "name": "IsTest"
                }
            ],
            "location": {
                "column": 25,
                "line": 3
            },
            "modifiers": [
                "private",
                "static",
                "testMethod"
            ],
            "name": "LoadSurveysFromCaseTypeTest",
            "parameters": [],
            "references": [],
            "returnType": "void",
            "type": null
        },
        {
            "annotations": [
                {
                    "name": "IsTest"
                }
            ],
            "location": {
                "column": 17,
                "line": 23
            },
            "modifiers": [
                "private",
                "static",
                "testMethod"
            ],
            "name": "testGetCaseTypeIdByCaseId",
            "parameters": [],
            "references": [],
            "returnType": "void",
            "type": null
        },
        {
            "annotations": [
                {
                    "name": "IsTest"
                }
            ],
            "location": {
                "column": 17,
                "line": 34
            },
            "modifiers": [
                "private",
                "static",
                "testMethod"
            ],
            "name": "testCreateCaseType",
            "parameters": [],
            "references": [],
            "returnType": "void",
            "type": null
        },
        {
            "annotations": [
                {
                    "name": "IsTest"
                }
            ],
            "location": {
                "column": 25,
                "line": 47
            },
            "modifiers": [
                "private",
                "static",
                "testMethod"
            ],
            "name": "CreateCaseTest",
            "parameters": [],
            "references": [],
            "returnType": "void",
            "type": null
        },
        {
            "annotations": [
                {
                    "name": "IsTest"
                }
            ],
            "location": {
                "column": 17,
                "line": 57
            },
            "modifiers": [
                "private",
                "static",
                "testMethod"
            ],
            "name": "testCreateCaseTypeEventType",
            "parameters": [],
            "references": [],
            "returnType": "void",
            "type": null
        },
        {
            "annotations": [
                {
                    "name": "IsTest"
                }
            ],
            "location": {
                "column": 17,
                "line": 68
            },
            "modifiers": [
                "private",
                "static",
                "testMethod"
            ],
            "name": "GetEventTypesByCaseTypeTest",
            "parameters": [],
            "references": [],
            "returnType": "void",
            "type": null
        },
        {
            "annotations": [
                {
                    "name": "IsTest"
                }
            ],
            "location": {
                "column": 17,
                "line": 78
            },
            "modifiers": [
                "private",
                "static",
                "testMethod"
            ],
            "name": "GetSurveysByEventTypesTest",
            "parameters": [],
            "references": [],
            "returnType": "void",
            "type": null
        },
        {
            "annotations": [
                {
                    "name": "IsTest"
                }
            ],
            "location": {
                "column": 17,
                "line": 96
            },
            "modifiers": [
                "private",
                "static",
                "testMethod"
            ],
            "name": "GetSurveysByEventTest",
            "parameters": [],
            "references": [],
            "returnType": "void",
            "type": null
        },
        {
            "annotations": [
                {
                    "name": "IsTest"
                }
            ],
            "location": {
                "column": 17,
                "line": 118
            },
            "modifiers": [
                "private",
                "static",
                "testMethod"
            ],
            "name": "GetSurveysByEventTypesTest2",
            "parameters": [],
            "references": [],
            "returnType": "void",
            "type": null
        },
        {
            "annotations": [
                {
                    "name": "IsTest"
                }
            ],
            "location": {
                "column": 17,
                "line": 135
            },
            "modifiers": [
                "private",
                "static",
                "testMethod"
            ],
            "name": "testCreateSurvey",
            "parameters": [],
            "references": [],
            "returnType": "void",
            "type": null
        },
        {
            "annotations": [
                {
                    "name": "IsTest"
                }
            ],
            "location": {
                "column": 17,
                "line": 142
            },
            "modifiers": [
                "private",
                "static",
                "testMethod"
            ],
            "name": "testCreateEventType",
            "parameters": [],
            "references": [],
            "returnType": "void",
            "type": null
        },
        {
            "annotations": [
                {
                    "name": "IsTest"
                }
            ],
            "location": {
                "column": 17,
                "line": 148
            },
            "modifiers": [
                "private",
                "static",
                "testMethod"
            ],
            "name": "testCreateEventTypeSurvey",
            "parameters": [],
            "references": [],
            "returnType": "void",
            "type": null
        },
        {
            "annotations": [
                {
                    "name": "IsTest"
                }
            ],
            "location": {
                "column": 17,
                "line": 157
            },
            "modifiers": [
                "private",
                "static",
                "testMethod"
            ],
            "name": "testCreateEventForm",
            "parameters": [],
            "references": [],
            "returnType": "void",
            "type": null
        },
        {
            "annotations": [
                {
                    "name": "IsTest"
                }
            ],
            "location": {
                "column": 17,
                "line": 165
            },
            "modifiers": [
                "private",
                "static",
                "testMethod"
            ],
            "name": "CreateEventTest",
            "parameters": [],
            "references": [],
            "returnType": "void",
            "type": null
        },
        {
            "annotations": [
                {
                    "name": "IsTest"
                }
            ],
            "location": {
                "column": 17,
                "line": 178
            },
            "modifiers": [
                "private",
                "static",
                "testMethod"
            ],
            "name": "CreatePatientTest",
            "parameters": [],
            "references": [],
            "returnType": "void",
            "type": null
        },
        {
            "annotations": [
                {
                    "name": "IsTest"
                }
            ],
            "location": {
                "column": 17,
                "line": 188
            },
            "modifiers": [
                "private",
                "static",
                "testMethod"
            ],
            "name": "getSurveyTest",
            "parameters": [],
            "references": [],
            "returnType": "void",
            "type": null
        },
        {
            "annotations": [
                {
                    "name": "IsTest"
                }
            ],
            "location": {
                "column": 17,
                "line": 202
            },
            "modifiers": [
                "private",
                "static",
                "testMethod"
            ],
            "name": "testGetEventType",
            "parameters": [],
            "references": [],
            "returnType": "void",
            "type": null
        },
        {
            "annotations": [
                {
                    "name": "IsTest"
                }
            ],
            "location": {
                "column": 17,
                "line": 210
            },
            "modifiers": [
                "private",
                "static",
                "testMethod"
            ],
            "name": "testCreateSurveyResponse",
            "parameters": [],
            "references": [],
            "returnType": "void",
            "type": null
        },
        {
            "annotations": [
                {
                    "name": "IsTest"
                }
            ],
            "location": {
                "column": 25,
                "line": 223
            },
            "modifiers": [
                "private",
                "static",
                "testMethod"
            ],
            "name": "GetPatientByIdTest",
            "parameters": [],
            "references": [],
            "returnType": "void",
            "type": null
        },
        {
            "annotations": [
                {
                    "name": "IsTest"
                }
            ],
            "location": {
                "column": 17,
                "line": 238
            },
            "modifiers": [
                "private",
                "static",
                "testMethod"
            ],
            "name": "GetEventFormTest",
            "parameters": [],
            "references": [],
            "returnType": "void",
            "type": null
        },
        {
            "annotations": [
                {
                    "name": "IsTest"
                }
            ],
            "location": {
                "column": 32,
                "line": 256
            },
            "modifiers": [
                "static",
                "public",
                "testMethod"
            ],
            "name": "GetEventTypeIdByEventIdTest",
            "parameters": [],
            "references": [],
            "returnType": "void",
            "type": null
        },
        {
            "annotations": [
                {
                    "name": "IsTest"
                }
            ],
            "location": {
                "column": 25,
                "line": 262
            },
            "modifiers": [
                "private",
                "static",
                "testMethod"
            ],
            "name": "GetSurveyEventTypesTest",
            "parameters": [],
            "references": [],
            "returnType": "void",
            "type": null
        },
        {
            "annotations": [
                {
                    "name": "IsTest"
                }
            ],
            "location": {
                "column": 17,
                "line": 272
            },
            "modifiers": [
                "private",
                "static",
                "testMethod"
            ],
            "name": "GetSurveyByIdTest",
            "parameters": [],
            "references": [],
            "returnType": "void",
            "type": null
        },
        {
            "annotations": [
                {
                    "name": "IsTest"
                }
            ],
            "location": {
                "column": 25,
                "line": 287
            },
            "modifiers": [
                "private",
                "static",
                "testMethod"
            ],
            "name": "GetScoreNamesTest1",
            "parameters": [],
            "references": [],
            "returnType": "void",
            "type": null
        },
        {
            "annotations": [
                {
                    "name": "IsTest"
                }
            ],
            "location": {
                "column": 17,
                "line": 292
            },
            "modifiers": [
                "private",
                "static",
                "testMethod"
            ],
            "name": "GetScoreNamesTest2",
            "parameters": [],
            "references": [],
            "returnType": "void",
            "type": null
        },
        {
            "annotations": [
                {
                    "name": "IsTest"
                }
            ],
            "location": {
                "column": 17,
                "line": 298
            },
            "modifiers": [
                "private",
                "static",
                "testMethod"
            ],
            "name": "GetScoreNamesTest3",
            "parameters": [],
            "references": [],
            "returnType": "void",
            "type": null
        },
        {
            "annotations": [
                {
                    "name": "IsTest"
                }
            ],
            "location": {
                "column": 17,
                "line": 304
            },
            "modifiers": [
                "private",
                "static",
                "testMethod"
            ],
            "name": "GetScoreNamesTest4",
            "parameters": [],
            "references": [],
            "returnType": "void",
            "type": null
        },
        {
            "annotations": [],
            "location": {
                "column": 28,
                "line": 309
            },
            "modifiers": [
                "private",
                "static"
            ],
            "name": "CreateTestCase",
            "parameters": [
                {
                    "name": "caseName",
                    "type": "String"
                }
            ],
            "references": [],
            "returnType": "Case__c",
            "type": null
        },
        {
            "annotations": [],
            "location": {
                "column": 34,
                "line": 323
            },
            "modifiers": [
                "private",
                "static"
            ],
            "name": "CreateTestEventForm",
            "parameters": [
                {
                    "name": "eventFormName",
                    "type": "String"
                }
            ],
            "references": [],
            "returnType": "Event_Form__c",
            "type": null
        },
        {
            "annotations": [],
            "location": {
                "column": 33,
                "line": 336
            },
            "modifiers": [
                "private",
                "static"
            ],
            "name": "CreateCaseType",
            "parameters": [
                {
                    "name": "caseTypeDescription",
                    "type": "String"
                }
            ],
            "references": [],
            "returnType": "Case_Type__c",
            "type": null
        },
        {
            "annotations": [],
            "location": {
                "column": 36,
                "line": 340
            },
            "modifiers": [
                "private",
                "static"
            ],
            "name": "CreateCaseTypeEventType",
            "parameters": [
                {
                    "name": "caseType",
                    "type": "Case_Type__c"
                },
                {
                    "name": "eventType",
                    "type": "Event_Type__c"
                }
            ],
            "references": [],
            "returnType": "Case_Type_Event_Type__c",
            "type": null
        },
        {
            "annotations": [],
            "location": {
                "column": 26,
                "line": 346
            },
            "modifiers": [
                "private",
                "static"
            ],
            "name": "CreateEventType",
            "parameters": [],
            "references": [],
            "returnType": "Event_Type__c",
            "type": null
        },
        {
            "annotations": [],
            "location": {
                "column": 33,
                "line": 350
            },
            "modifiers": [
                "private",
                "static"
            ],
            "name": "CreateEventTypeSurvey",
            "parameters": [
                {
                    "name": "eventType",
                    "type": "Event_Type__c"
                },
                {
                    "name": "survey",
                    "type": "Survey__c"
                }
            ],
            "references": [],
            "returnType": "Event_Type_Survey__c",
            "type": null
        }
    ],
    "name": "IQ_SurveyRepositoryTests",
    "namespace": null,
    "parentClass": "",
    "properties": [],
    "tableDeclaration": {
        "annotations": [
            {
                "name": "IsTest"
            }
        ],
        "location": {
            "column": 14,
            "line": 2
        },
        "modifiers": [
            "public",
            "testMethod"
        ],
        "name": "IQ_SurveyRepositoryTests",
        "references": [],
        "type": "IQ_SurveyRepositoryTests"
    },
    "variables": [
        {
            "annotations": [],
            "location": {
                "column": 16,
                "line": 5
            },
            "modifiers": [],
            "name": "caseName",
            "references": [],
            "type": "String"
        },
        {
            "annotations": [],
            "location": {
                "column": 17,
                "line": 6
            },
            "modifiers": [],
            "name": "acct",
            "references": [],
            "type": "Account"
        },
        {
            "annotations": [],
            "location": {
                "column": 19,
                "line": 7
            },
            "modifiers": [],
            "name": "survey",
            "references": [],
            "type": "Survey__c"
        },
        {
            "annotations": [],
            "location": {
                "column": 23,
                "line": 8
            },
            "modifiers": [],
            "name": "eventType",
            "references": [],
            "type": "Event_Type__c"
        },
        {
            "annotations": [],
            "location": {
                "column": 20,
                "line": 9
            },
            "modifiers": [],
            "name": "patient",
            "references": [],
            "type": "Patient__c"
        },
        {
            "annotations": [],
            "location": {
                "column": 30,
                "line": 10
            },
            "modifiers": [],
            "name": "eventTypeSurvey",
            "references": [],
            "type": "Event_Type_Survey__c"
        },
        {
            "annotations": [],
            "location": {
                "column": 22,
                "line": 12
            },
            "modifiers": [],
            "name": "caseType",
            "references": [],
            "type": "Case_Type__c"
        },
        {
            "annotations": [],
            "location": {
                "column": 17,
                "line": 13
            },
            "modifiers": [],
            "name": "caseRecord",
            "references": [],
            "type": "Case__c"
        },
        {
            "annotations": [],
            "location": {
                "column": 16,
                "line": 15
            },
            "modifiers": [],
            "name": "caseTypeId",
            "references": [],
            "type": "String"
        },
        {
            "annotations": [],
            "location": {
                "column": 33,
                "line": 17
            },
            "modifiers": [],
            "name": "caseTypeEventType",
            "references": [],
            "type": "Case_Type_Event_Type__c"
        },
        {
            "annotations": [],
            "location": {
                "column": 25,
                "line": 18
            },
            "modifiers": [],
            "name": "surveys",
            "references": [],
            "type": "LIST"
        },
        {
            "annotations": [],
            "location": {
                "column": 16,
                "line": 25
            },
            "modifiers": [],
            "name": "caseName",
            "references": [],
            "type": "String"
        },
        {
            "annotations": [],
            "location": {
                "column": 17,
                "line": 26
            },
            "modifiers": [],
            "name": "caseRecord",
            "references": [],
            "type": "Case__c"
        },
        {
            "annotations": [],
            "location": {
                "column": 13,
                "line": 27
            },
            "modifiers": [],
            "name": "caseIdString",
            "references": [],
            "type": "String"
        },
        {
            "annotations": [],
            "location": {
                "column": 16,
                "line": 36
            },
            "modifiers": [],
            "name": "description",
            "references": [],
            "type": "String"
        },
        {
            "annotations": [],
            "location": {
                "column": 22,
                "line": 37
            },
            "modifiers": [],
            "name": "ctRec",
            "references": [],
            "type": "Case_Type__c"
        },
        {
            "annotations": [],
            "location": {
                "column": 16,
                "line": 38
            },
            "modifiers": [],
            "name": "caseTypeId",
            "references": [],
            "type": "String"
        },
        {
            "annotations": [],
            "location": {
                "column": 28,
                "line": 40
            },
            "modifiers": [],
            "name": "newRec",
            "references": [],
            "type": "LIST"
        },
        {
            "annotations": [],
            "location": {
                "column": 16,
                "line": 49
            },
            "modifiers": [],
            "name": "caseName",
            "references": [],
            "type": "String"
        },
        {
            "annotations": [],
            "location": {
                "column": 17,
                "line": 50
            },
            "modifiers": [],
            "name": "caseRecord",
            "references": [],
            "type": "Case__c"
        },
        {
            "annotations": [],
            "location": {
                "column": 22,
                "line": 58
            },
            "modifiers": [],
            "name": "caseType",
            "references": [],
            "type": "Case_Type__c"
        },
        {
            "annotations": [],
            "location": {
                "column": 23,
                "line": 59
            },
            "modifiers": [],
            "name": "eventType",
            "references": [],
            "type": "Event_Type__c"
        },
        {
            "annotations": [],
            "location": {
                "column": 33,
                "line": 60
            },
            "modifiers": [],
            "name": "ctet",
            "references": [],
            "type": "Case_Type_Event_Type__c"
        },
        {
            "annotations": [],
            "location": {
                "column": 39,
                "line": 61
            },
            "modifiers": [],
            "name": "newctet",
            "references": [],
            "type": "LIST"
        },
        {
            "annotations": [],
            "location": {
                "column": 22,
                "line": 69
            },
            "modifiers": [],
            "name": "caseType",
            "references": [],
            "type": "Case_Type__c"
        },
        {
            "annotations": [],
            "location": {
                "column": 23,
                "line": 70
            },
            "modifiers": [],
            "name": "eventType",
            "references": [],
            "type": "Event_Type__c"
        },
        {
            "annotations": [],
            "location": {
                "column": 33,
                "line": 71
            },
            "modifiers": [],
            "name": "ctet",
            "references": [],
            "type": "Case_Type_Event_Type__c"
        },
        {
            "annotations": [],
            "location": {
                "column": 29,
                "line": 73
            },
            "modifiers": [],
            "name": "ids",
            "references": [],
            "type": "LIST"
        },
        {
            "annotations": [],
            "location": {
                "column": 16,
                "line": 79
            },
            "modifiers": [],
            "name": "caseName",
            "references": [],
            "type": "String"
        },
        {
            "annotations": [],
            "location": {
                "column": 17,
                "line": 80
            },
            "modifiers": [],
            "name": "caseRecord",
            "references": [],
            "type": "Case__c"
        },
        {
            "annotations": [],
            "location": {
                "column": 16,
                "line": 81
            },
            "modifiers": [],
            "name": "caseTypeId",
            "references": [],
            "type": "String"
        },
        {
            "annotations": [],
            "location": {
                "column": 19,
                "line": 82
            },
            "modifiers": [],
            "name": "survey",
            "references": [],
            "type": "Survey__c"
        },
        {
            "annotations": [],
            "location": {
                "column": 23,
                "line": 83
            },
            "modifiers": [],
            "name": "eventType",
            "references": [],
            "type": "Event_Type__c"
        },
        {
            "annotations": [],
            "location": {
                "column": 30,
                "line": 84
            },
            "modifiers": [],
            "name": "eventTypeSurvey",
            "references": [],
            "type": "Event_Type_Survey__c"
        },
        {
            "annotations": [],
            "location": {
                "column": 22,
                "line": 85
            },
            "modifiers": [],
            "name": "caseType",
            "references": [],
            "type": "Case_Type__c"
        },
        {
            "annotations": [],
            "location": {
                "column": 33,
                "line": 86
            },
            "modifiers": [],
            "name": "caseTypeEventType",
            "references": [],
            "type": "Case_Type_Event_Type__c"
        },
        {
            "annotations": [],
            "location": {
                "column": 29,
                "line": 87
            },
            "modifiers": [],
            "name": "ids",
            "references": [],
            "type": "LIST"
        },
        {
            "annotations": [],
            "location": {
                "column": 25,
                "line": 90
            },
            "modifiers": [],
            "name": "surveys",
            "references": [],
            "type": "LIST"
        },
        {
            "annotations": [],
            "location": {
                "column": 16,
                "line": 97
            },
            "modifiers": [],
            "name": "caseName",
            "references": [],
            "type": "String"
        },
        {
            "annotations": [],
            "location": {
                "column": 17,
                "line": 98
            },
            "modifiers": [],
            "name": "acct",
            "references": [],
            "type": "Account"
        },
        {
            "annotations": [],
            "location": {
                "column": 17,
                "line": 99
            },
            "modifiers": [],
            "name": "caseRecord",
            "references": [],
            "type": "Case__c"
        },
        {
            "annotations": [],
            "location": {
                "column": 16,
                "line": 100
            },
            "modifiers": [],
            "name": "caseTypeId",
            "references": [],
            "type": "String"
        },
        {
            "annotations": [],
            "location": {
                "column": 19,
                "line": 101
            },
            "modifiers": [],
            "name": "survey",
            "references": [],
            "type": "Survey__c"
        },
        {
            "annotations": [],
            "location": {
                "column": 23,
                "line": 103
            },
            "modifiers": [],
            "name": "eventType",
            "references": [],
            "type": "Event_Type__c"
        },
        {
            "annotations": [],
            "location": {
                "column": 30,
                "line": 104
            },
            "modifiers": [],
            "name": "eventTypeSurvey",
            "references": [],
            "type": "Event_Type_Survey__c"
        },
        {
            "annotations": [],
            "location": {
                "column": 20,
                "line": 105
            },
            "modifiers": [],
            "name": "patient",
            "references": [],
            "type": "Patient__c"
        },
        {
            "annotations": [],
            "location": {
                "column": 22,
                "line": 106
            },
            "modifiers": [],
            "name": "caseType",
            "references": [],
            "type": "Case_Type__c"
        },
        {
            "annotations": [],
            "location": {
                "column": 33,
                "line": 107
            },
            "modifiers": [],
            "name": "caseTypeEventType",
            "references": [],
            "type": "Case_Type_Event_Type__c"
        },
        {
            "annotations": [],
            "location": {
                "column": 18,
                "line": 109
            },
            "modifiers": [],
            "name": "event",
            "references": [],
            "type": "Event__c"
        },
        {
            "annotations": [],
            "location": {
                "column": 25,
                "line": 112
            },
            "modifiers": [],
            "name": "surveys",
            "references": [],
            "type": "LIST"
        },
        {
            "annotations": [],
            "location": {
                "column": 16,
                "line": 119
            },
            "modifiers": [],
            "name": "caseName",
            "references": [],
            "type": "String"
        },
        {
            "annotations": [],
            "location": {
                "column": 17,
                "line": 120
            },
            "modifiers": [],
            "name": "caseRecord",
            "references": [],
            "type": "Case__c"
        },
        {
            "annotations": [],
            "location": {
                "column": 16,
                "line": 121
            },
            "modifiers": [],
            "name": "caseTypeId",
            "references": [],
            "type": "String"
        },
        {
            "annotations": [],
            "location": {
                "column": 19,
                "line": 122
            },
            "modifiers": [],
            "name": "survey",
            "references": [],
            "type": "Survey__c"
        },
        {
            "annotations": [],
            "location": {
                "column": 23,
                "line": 123
            },
            "modifiers": [],
            "name": "eventType",
            "references": [],
            "type": "Event_Type__c"
        },
        {
            "annotations": [],
            "location": {
                "column": 30,
                "line": 124
            },
            "modifiers": [],
            "name": "eventTypeSurvey",
            "references": [],
            "type": "Event_Type_Survey__c"
        },
        {
            "annotations": [],
            "location": {
                "column": 22,
                "line": 125
            },
            "modifiers": [],
            "name": "caseType",
            "references": [],
            "type": "Case_Type__c"
        },
        {
            "annotations": [],
            "location": {
                "column": 33,
                "line": 126
            },
            "modifiers": [],
            "name": "caseTypeEventType",
            "references": [],
            "type": "Case_Type_Event_Type__c"
        },
        {
            "annotations": [],
            "location": {
                "column": 29,
                "line": 127
            },
            "modifiers": [],
            "name": "ids",
            "references": [],
            "type": "LIST"
        },
        {
            "annotations": [],
            "location": {
                "column": 25,
                "line": 129
            },
            "modifiers": [],
            "name": "surveys",
            "references": [],
            "type": "LIST"
        },
        {
            "annotations": [],
            "location": {
                "column": 19,
                "line": 136
            },
            "modifiers": [],
            "name": "survey",
            "references": [],
            "type": "Survey__c"
        },
        {
            "annotations": [],
            "location": {
                "column": 23,
                "line": 143
            },
            "modifiers": [],
            "name": "eventType",
            "references": [],
            "type": "Event_Type__c"
        },
        {
            "annotations": [],
            "location": {
                "column": 19,
                "line": 149
            },
            "modifiers": [],
            "name": "survey",
            "references": [],
            "type": "Survey__c"
        },
        {
            "annotations": [],
            "location": {
                "column": 23,
                "line": 150
            },
            "modifiers": [],
            "name": "eventType",
            "references": [],
            "type": "Event_Type__c"
        },
        {
            "annotations": [],
            "location": {
                "column": 30,
                "line": 151
            },
            "modifiers": [],
            "name": "eventTypeSurvey",
            "references": [],
            "type": "Event_Type_Survey__c"
        },
        {
            "annotations": [],
            "location": {
                "column": 16,
                "line": 158
            },
            "modifiers": [],
            "name": "eventFormName",
            "references": [],
            "type": "String"
        },
        {
            "annotations": [],
            "location": {
                "column": 23,
                "line": 159
            },
            "modifiers": [],
            "name": "ef",
            "references": [],
            "type": "Event_Form__c"
        },
        {
            "annotations": [],
            "location": {
                "column": 17,
                "line": 166
            },
            "modifiers": [],
            "name": "acct",
            "references": [],
            "type": "Account"
        },
        {
            "annotations": [],
            "location": {
                "column": 19,
                "line": 167
            },
            "modifiers": [],
            "name": "survey",
            "references": [],
            "type": "Survey__c"
        },
        {
            "annotations": [],
            "location": {
                "column": 23,
                "line": 168
            },
            "modifiers": [],
            "name": "eventType",
            "references": [],
            "type": "Event_Type__c"
        },
        {
            "annotations": [],
            "location": {
                "column": 20,
                "line": 169
            },
            "modifiers": [],
            "name": "patient",
            "references": [],
            "type": "Patient__c"
        },
        {
            "annotations": [],
            "location": {
                "column": 30,
                "line": 170
            },
            "modifiers": [],
            "name": "eventTypeSurvey",
            "references": [],
            "type": "Event_Type_Survey__c"
        },
        {
            "annotations": [],
            "location": {
                "column": 16,
                "line": 171
            },
            "modifiers": [],
            "name": "eventName",
            "references": [],
            "type": "String"
        },
        {
            "annotations": [],
            "location": {
                "column": 18,
                "line": 172
            },
            "modifiers": [],
            "name": "event",
            "references": [],
            "type": "Event__c"
        },
        {
            "annotations": [],
            "location": {
                "column": 17,
                "line": 179
            },
            "modifiers": [],
            "name": "acct",
            "references": [],
            "type": "Account"
        },
        {
            "annotations": [],
            "location": {
                "column": 16,
                "line": 180
            },
            "modifiers": [],
            "name": "lastName",
            "references": [],
            "type": "String"
        },
        {
            "annotations": [],
            "location": {
                "column": 16,
                "line": 181
            },
            "modifiers": [],
            "name": "firstName",
            "references": [],
            "type": "String"
        },
        {
            "annotations": [],
            "location": {
                "column": 20,
                "line": 182
            },
            "modifiers": [],
            "name": "patient",
            "references": [],
            "type": "Patient__c"
        },
        {
            "annotations": [],
            "location": {
                "column": 16,
                "line": 189
            },
            "modifiers": [],
            "name": "surveyName",
            "references": [],
            "type": "String"
        },
        {
            "annotations": [],
            "location": {
                "column": 19,
                "line": 190
            },
            "modifiers": [],
            "name": "survey",
            "references": [],
            "type": "Survey__c"
        },
        {
            "annotations": [],
            "location": {
                "column": 19,
                "line": 191
            },
            "modifiers": [],
            "name": "retrievedSurvey",
            "references": [],
            "type": "Survey__c"
        },
        {
            "annotations": [],
            "location": {
                "column": 16,
                "line": 203
            },
            "modifiers": [],
            "name": "eventTypeName",
            "references": [],
            "type": "String"
        },
        {
            "annotations": [],
            "location": {
                "column": 23,
                "line": 204
            },
            "modifiers": [],
            "name": "et",
            "references": [],
            "type": "Event_Type__c"
        },
        {
            "annotations": [],
            "location": {
                "column": 23,
                "line": 205
            },
            "modifiers": [],
            "name": "retrievedEt",
            "references": [],
            "type": "Event_Type__c"
        },
        {
            "annotations": [],
            "location": {
                "column": 28,
                "line": 211
            },
            "modifiers": [],
            "name": "sr",
            "references": [],
            "type": "Survey_Response__c"
        },
        {
            "annotations": [],
            "location": {
                "column": 16,
                "line": 212
            },
            "modifiers": [],
            "name": "eventFormName",
            "references": [],
            "type": "String"
        },
        {
            "annotations": [],
            "location": {
                "column": 23,
                "line": 213
            },
            "modifiers": [],
            "name": "eventForm",
            "references": [],
            "type": "Event_Form__c"
        },
        {
            "annotations": [],
            "location": {
                "column": 19,
                "line": 214
            },
            "modifiers": [],
            "name": "survey",
            "references": [],
            "type": "Survey__c"
        },
        {
            "annotations": [],
            "location": {
                "column": 16,
                "line": 215
            },
            "modifiers": [],
            "name": "question",
            "references": [],
            "type": "String"
        },
        {
            "annotations": [],
            "location": {
                "column": 16,
                "line": 216
            },
            "modifiers": [],
            "name": "response",
            "references": [],
            "type": "String"
        },
        {
            "annotations": [],
            "location": {
                "column": 28,
                "line": 218
            },
            "modifiers": [],
            "name": "surveyResponse",
            "references": [],
            "type": "Survey_Response__c"
        },
        {
            "annotations": [],
            "location": {
                "column": 17,
                "line": 224
            },
            "modifiers": [],
            "name": "acct",
            "references": [],
            "type": "Account"
        },
        {
            "annotations": [],
            "location": {
                "column": 16,
                "line": 226
            },
            "modifiers": [],
            "name": "firstName",
            "references": [],
            "type": "String"
        },
        {
            "annotations": [],
            "location": {
                "column": 16,
                "line": 227
            },
            "modifiers": [],
            "name": "lastName",
            "references": [],
            "type": "String"
        },
        {
            "annotations": [],
            "location": {
                "column": 16,
                "line": 228
            },
            "modifiers": [],
            "name": "hospitalId",
            "references": [],
            "type": "String"
        },
        {
            "annotations": [],
            "location": {
                "column": 20,
                "line": 229
            },
            "modifiers": [],
            "name": "newPatient",
            "references": [],
            "type": "Patient__c"
        },
        {
            "annotations": [],
            "location": {
                "column": 20,
                "line": 230
            },
            "modifiers": [],
            "name": "patient",
            "references": [],
            "type": "Patient__c"
        },
        {
            "annotations": [],
            "location": {
                "column": 16,
                "line": 239
            },
            "modifiers": [],
            "name": "eventFormName",
            "references": [],
            "type": "String"
        },
        {
            "annotations": [],
            "location": {
                "column": 17,
                "line": 240
            },
            "modifiers": [],
            "name": "acct",
            "references": [],
            "type": "Account"
        },
        {
            "annotations": [],
            "location": {
                "column": 23,
                "line": 241
            },
            "modifiers": [],
            "name": "eventType",
            "references": [],
            "type": "Event_Type__c"
        },
        {
            "annotations": [],
            "location": {
                "column": 19,
                "line": 242
            },
            "modifiers": [],
            "name": "survey",
            "references": [],
            "type": "Survey__c"
        },
        {
            "annotations": [],
            "location": {
                "column": 22,
                "line": 243
            },
            "modifiers": [],
            "name": "patient",
            "references": [],
            "type": "Patient__c"
        },
        {
            "annotations": [],
            "location": {
                "column": 16,
                "line": 244
            },
            "modifiers": [],
            "name": "eventName",
            "references": [],
            "type": "String"
        },
        {
            "annotations": [],
            "location": {
                "column": 18,
                "line": 245
            },
            "modifiers": [],
            "name": "event",
            "references": [],
            "type": "Event__c"
        },
        {
            "annotations": [],
            "location": {
                "column": 23,
                "line": 248
            },
            "modifiers": [],
            "name": "ef",
            "references": [],
            "type": "Event_Form__c"
        },
        {
            "annotations": [],
            "location": {
                "column": 23,
                "line": 250
            },
            "modifiers": [],
            "name": "eventFormRetrieved",
            "references": [],
            "type": "Event_Form__c"
        },
        {
            "annotations": [],
            "location": {
                "column": 16,
                "line": 257
            },
            "modifiers": [],
            "name": "test",
            "references": [],
            "type": "String"
        },
        {
            "annotations": [],
            "location": {
                "column": 25,
                "line": 263
            },
            "modifiers": [],
            "name": "prom",
            "references": [],
            "type": "LIST"
        },
        {
            "annotations": [],
            "location": {
                "column": 36,
                "line": 266
            },
            "modifiers": [],
            "name": "eventTypes",
            "references": [],
            "type": "LIST"
        },
        {
            "annotations": [],
            "location": {
                "column": 19,
                "line": 273
            },
            "modifiers": [],
            "name": "survey",
            "references": [],
            "type": "Survey__c"
        },
        {
            "annotations": [],
            "location": {
                "column": 19,
                "line": 274
            },
            "modifiers": [],
            "name": "retrievedSurvey",
            "references": [],
            "type": "Survey__c"
        },
        {
            "annotations": [],
            "location": {
                "column": 22,
                "line": 288
            },
            "modifiers": [],
            "name": "surveyScoreNames",
            "references": [],
            "type": "LIST"
        },
        {
            "annotations": [],
            "location": {
                "column": 22,
                "line": 293
            },
            "modifiers": [],
            "name": "questions",
            "references": [],
            "type": "LIST"
        },
        {
            "annotations": [],
            "location": {
                "column": 22,
                "line": 299
            },
            "modifiers": [],
            "name": "questions",
            "references": [],
            "type": "LIST"
        },
        {
            "annotations": [],
            "location": {
                "column": 22,
                "line": 305
            },
            "modifiers": [],
            "name": "questions",
            "references": [],
            "type": "LIST"
        },
        {
            "annotations": [],
            "location": {
                "column": 50,
                "line": 309
            },
            "modifiers": [],
            "name": "caseName",
            "references": [],
            "type": "String"
        },
        {
            "annotations": [],
            "location": {
                "column": 17,
                "line": 310
            },
            "modifiers": [],
            "name": "acct",
            "references": [],
            "type": "Account"
        },
        {
            "annotations": [],
            "location": {
                "column": 19,
                "line": 311
            },
            "modifiers": [],
            "name": "survey",
            "references": [],
            "type": "Survey__c"
        },
        {
            "annotations": [],
            "location": {
                "column": 23,
                "line": 312
            },
            "modifiers": [],
            "name": "eventType",
            "references": [],
            "type": "Event_Type__c"
        },
        {
            "annotations": [],
            "location": {
                "column": 20,
                "line": 313
            },
            "modifiers": [],
            "name": "patient",
            "references": [],
            "type": "Patient__c"
        },
        {
            "annotations": [],
            "location": {
                "column": 30,
                "line": 314
            },
            "modifiers": [],
            "name": "eventTypeSurvey",
            "references": [],
            "type": "Event_Type_Survey__c"
        },
        {
            "annotations": [],
            "location": {
                "column": 17,
                "line": 317
            },
            "modifiers": [],
            "name": "caseRecord",
            "references": [],
            "type": "Case__c"
        },
        {
            "annotations": [],
            "location": {
                "column": 61,
                "line": 323
            },
            "modifiers": [],
            "name": "eventFormName",
            "references": [],
            "type": "String"
        },
        {
            "annotations": [],
            "location": {
                "column": 17,
                "line": 324
            },
            "modifiers": [],
            "name": "acct",
            "references": [],
            "type": "Account"
        },
        {
            "annotations": [],
            "location": {
                "column": 23,
                "line": 325
            },
            "modifiers": [],
            "name": "eventType",
            "references": [],
            "type": "Event_Type__c"
        },
        {
            "annotations": [],
            "location": {
                "column": 19,
                "line": 326
            },
            "modifiers": [],
            "name": "survey",
            "references": [],
            "type": "Survey__c"
        },
        {
            "annotations": [],
            "location": {
                "column": 22,
                "line": 327
            },
            "modifiers": [],
            "name": "patient",
            "references": [],
            "type": "Patient__c"
        },
        {
            "annotations": [],
            "location": {
                "column": 16,
                "line": 328
            },
            "modifiers": [],
            "name": "eventName",
            "references": [],
            "type": "String"
        },
        {
            "annotations": [],
            "location": {
                "column": 18,
                "line": 329
            },
            "modifiers": [],
            "name": "event",
            "references": [],
            "type": "Event__c"
        },
        {
            "annotations": [],
            "location": {
                "column": 23,
                "line": 332
            },
            "modifiers": [],
            "name": "ef",
            "references": [],
            "type": "Event_Form__c"
        },
        {
            "annotations": [],
            "location": {
                "column": 55,
                "line": 336
            },
            "modifiers": [],
            "name": "caseTypeDescription",
            "references": [],
            "type": "String"
        },
        {
            "annotations": [],
            "location": {
                "column": 73,
                "line": 340
            },
            "modifiers": [],
            "name": "caseType",
            "references": [],
            "type": "Case_Type__c"
        },
        {
            "annotations": [],
            "location": {
                "column": 97,
                "line": 340
            },
            "modifiers": [],
            "name": "eventType",
            "references": [],
            "type": "Event_Type__c"
        },
        {
            "annotations": [],
            "location": {
                "column": 69,
                "line": 350
            },
            "modifiers": [],
            "name": "eventType",
            "references": [],
            "type": "Event_Type__c"
        },
        {
            "annotations": [],
            "location": {
                "column": 90,
                "line": 350
            },
            "modifiers": [],
            "name": "survey",
            "references": [],
            "type": "Survey__c"
        },
        {
            "annotations": [],
            "location": {
                "column": 30,
                "line": 351
            },
            "modifiers": [],
            "name": "eventTypeSurvey",
            "references": [],
            "type": "Event_Type_Survey__c"
        }
    ]
}